%!PS-Adobe-3.0 EPSF-3.0
%%Creator: (MATLAB, The Mathworks, Inc. Version 9.5.0.944444 \(R2018b\). Operating System: Windows 10)
%%Title: (C:/Users/david/Google Drive/MAESTRIA/SEMESTRE 2/INTELIGENIA COMPUTACIONAL/talleres/taller 1/and2tiempo.eps)
%%CreationDate: 2019-03-04T09:41:41
%%Pages: (atend)
%%BoundingBox: 0 0 1025 488
%%LanguageLevel: 3
%%EndComments
%%BeginProlog
%%BeginResource: procset (Apache XML Graphics Std ProcSet) 1.2 0
%%Version: 1.2 0
%%Copyright: (Copyright 2001-2003,2010 The Apache Software Foundation. License terms: http://www.apache.org/licenses/LICENSE-2.0)
/bd{bind def}bind def
/ld{load def}bd
/GR/grestore ld
/GS/gsave ld
/RM/rmoveto ld
/C/curveto ld
/t/show ld
/L/lineto ld
/ML/setmiterlimit ld
/CT/concat ld
/f/fill ld
/N/newpath ld
/S/stroke ld
/CC/setcmykcolor ld
/A/ashow ld
/cp/closepath ld
/RC/setrgbcolor ld
/LJ/setlinejoin ld
/GC/setgray ld
/LW/setlinewidth ld
/M/moveto ld
/re {4 2 roll M
1 index 0 rlineto
0 exch rlineto
neg 0 rlineto
cp } bd
/_ctm matrix def
/_tm matrix def
/BT { _ctm currentmatrix pop matrix _tm copy pop 0 0 moveto } bd
/ET { _ctm setmatrix } bd
/iTm { _ctm setmatrix _tm concat } bd
/Tm { _tm astore pop iTm 0 0 moveto } bd
/ux 0.0 def
/uy 0.0 def
/F {
  /Tp exch def
  /Tf exch def
  Tf findfont Tp scalefont setfont
  /cf Tf def  /cs Tp def
} bd
/ULS {currentpoint /uy exch def /ux exch def} bd
/ULE {
  /Tcx currentpoint pop def
  gsave
  newpath
  cf findfont cs scalefont dup
  /FontMatrix get 0 get /Ts exch def /FontInfo get dup
  /UnderlinePosition get Ts mul /To exch def
  /UnderlineThickness get Ts mul /Tt exch def
  ux uy To add moveto  Tcx uy To add lineto
  Tt setlinewidth stroke
  grestore
} bd
/OLE {
  /Tcx currentpoint pop def
  gsave
  newpath
  cf findfont cs scalefont dup
  /FontMatrix get 0 get /Ts exch def /FontInfo get dup
  /UnderlinePosition get Ts mul /To exch def
  /UnderlineThickness get Ts mul /Tt exch def
  ux uy To add cs add moveto Tcx uy To add cs add lineto
  Tt setlinewidth stroke
  grestore
} bd
/SOE {
  /Tcx currentpoint pop def
  gsave
  newpath
  cf findfont cs scalefont dup
  /FontMatrix get 0 get /Ts exch def /FontInfo get dup
  /UnderlinePosition get Ts mul /To exch def
  /UnderlineThickness get Ts mul /Tt exch def
  ux uy To add cs 10 mul 26 idiv add moveto Tcx uy To add cs 10 mul 26 idiv add lineto
  Tt setlinewidth stroke
  grestore
} bd
/QT {
/Y22 exch store
/X22 exch store
/Y21 exch store
/X21 exch store
currentpoint
/Y21 load 2 mul add 3 div exch
/X21 load 2 mul add 3 div exch
/X21 load 2 mul /X22 load add 3 div
/Y21 load 2 mul /Y22 load add 3 div
/X22 load /Y22 load curveto
} bd
/SSPD {
dup length /d exch dict def
{
/v exch def
/k exch def
currentpagedevice k known {
/cpdv currentpagedevice k get def
v cpdv ne {
/upd false def
/nullv v type /nulltype eq def
/nullcpdv cpdv type /nulltype eq def
nullv nullcpdv or
{
/upd true def
} {
/sametype v type cpdv type eq def
sametype {
v type /arraytype eq {
/vlen v length def
/cpdvlen cpdv length def
vlen cpdvlen eq {
0 1 vlen 1 sub {
/i exch def
/obj v i get def
/cpdobj cpdv i get def
obj cpdobj ne {
/upd true def
exit
} if
} for
} {
/upd true def
} ifelse
} {
v type /dicttype eq {
v {
/dv exch def
/dk exch def
/cpddv cpdv dk get def
dv cpddv ne {
/upd true def
exit
} if
} forall
} {
/upd true def
} ifelse
} ifelse
} if
} ifelse
upd true eq {
d k v put
} if
} if
} if
} forall
d length 0 gt {
d setpagedevice
} if
} bd
/RE { % /NewFontName [NewEncodingArray] /FontName RE -
  findfont dup length dict begin
  {
    1 index /FID ne
    {def} {pop pop} ifelse
  } forall
  /Encoding exch def
  /FontName 1 index def
  currentdict definefont pop
  end
} bind def
%%EndResource
%%BeginResource: procset (Apache XML Graphics EPS ProcSet) 1.0 0
%%Version: 1.0 0
%%Copyright: (Copyright 2002-2003 The Apache Software Foundation. License terms: http://www.apache.org/licenses/LICENSE-2.0)
/BeginEPSF { %def
/b4_Inc_state save def         % Save state for cleanup
/dict_count countdictstack def % Count objects on dict stack
/op_count count 1 sub def      % Count objects on operand stack
userdict begin                 % Push userdict on dict stack
/showpage { } def              % Redefine showpage, { } = null proc
0 setgray 0 setlinecap         % Prepare graphics state
1 setlinewidth 0 setlinejoin
10 setmiterlimit [ ] 0 setdash newpath
/languagelevel where           % If level not equal to 1 then
{pop languagelevel             % set strokeadjust and
1 ne                           % overprint to their defaults.
{false setstrokeadjust false setoverprint
} if
} if
} bd
/EndEPSF { %def
count op_count sub {pop} repeat            % Clean up stacks
countdictstack dict_count sub {end} repeat
b4_Inc_state restore
} bd
%%EndResource
%FOPBeginFontDict
%%IncludeResource: font Courier-Oblique
%%IncludeResource: font Courier-BoldOblique
%%IncludeResource: font Courier-Bold
%%IncludeResource: font ZapfDingbats
%%IncludeResource: font Symbol
%%IncludeResource: font Helvetica
%%IncludeResource: font Helvetica-Oblique
%%IncludeResource: font Helvetica-Bold
%%IncludeResource: font Helvetica-BoldOblique
%%IncludeResource: font Times-Roman
%%IncludeResource: font Times-Italic
%%IncludeResource: font Times-Bold
%%IncludeResource: font Times-BoldItalic
%%IncludeResource: font Courier
%FOPEndFontDict
%%BeginResource: encoding WinAnsiEncoding
/WinAnsiEncoding [
/.notdef /.notdef /.notdef /.notdef /.notdef
/.notdef /.notdef /.notdef /.notdef /.notdef
/.notdef /.notdef /.notdef /.notdef /.notdef
/.notdef /.notdef /.notdef /.notdef /.notdef
/.notdef /.notdef /.notdef /.notdef /.notdef
/.notdef /.notdef /.notdef /.notdef /.notdef
/.notdef /.notdef /space /exclam /quotedbl
/numbersign /dollar /percent /ampersand /quotesingle
/parenleft /parenright /asterisk /plus /comma
/hyphen /period /slash /zero /one
/two /three /four /five /six
/seven /eight /nine /colon /semicolon
/less /equal /greater /question /at
/A /B /C /D /E
/F /G /H /I /J
/K /L /M /N /O
/P /Q /R /S /T
/U /V /W /X /Y
/Z /bracketleft /backslash /bracketright /asciicircum
/underscore /quoteleft /a /b /c
/d /e /f /g /h
/i /j /k /l /m
/n /o /p /q /r
/s /t /u /v /w
/x /y /z /braceleft /bar
/braceright /asciitilde /bullet /Euro /bullet
/quotesinglbase /florin /quotedblbase /ellipsis /dagger
/daggerdbl /circumflex /perthousand /Scaron /guilsinglleft
/OE /bullet /Zcaron /bullet /bullet
/quoteleft /quoteright /quotedblleft /quotedblright /bullet
/endash /emdash /asciitilde /trademark /scaron
/guilsinglright /oe /bullet /zcaron /Ydieresis
/space /exclamdown /cent /sterling /currency
/yen /brokenbar /section /dieresis /copyright
/ordfeminine /guillemotleft /logicalnot /sfthyphen /registered
/macron /degree /plusminus /twosuperior /threesuperior
/acute /mu /paragraph /middot /cedilla
/onesuperior /ordmasculine /guillemotright /onequarter /onehalf
/threequarters /questiondown /Agrave /Aacute /Acircumflex
/Atilde /Adieresis /Aring /AE /Ccedilla
/Egrave /Eacute /Ecircumflex /Edieresis /Igrave
/Iacute /Icircumflex /Idieresis /Eth /Ntilde
/Ograve /Oacute /Ocircumflex /Otilde /Odieresis
/multiply /Oslash /Ugrave /Uacute /Ucircumflex
/Udieresis /Yacute /Thorn /germandbls /agrave
/aacute /acircumflex /atilde /adieresis /aring
/ae /ccedilla /egrave /eacute /ecircumflex
/edieresis /igrave /iacute /icircumflex /idieresis
/eth /ntilde /ograve /oacute /ocircumflex
/otilde /odieresis /divide /oslash /ugrave
/uacute /ucircumflex /udieresis /yacute /thorn
/ydieresis
] def
%%EndResource
%FOPBeginFontReencode
/Courier-Oblique findfont
dup length dict begin
  {1 index /FID ne {def} {pop pop} ifelse} forall
  /Encoding WinAnsiEncoding def
  currentdict
end
/Courier-Oblique exch definefont pop
/Courier-BoldOblique findfont
dup length dict begin
  {1 index /FID ne {def} {pop pop} ifelse} forall
  /Encoding WinAnsiEncoding def
  currentdict
end
/Courier-BoldOblique exch definefont pop
/Courier-Bold findfont
dup length dict begin
  {1 index /FID ne {def} {pop pop} ifelse} forall
  /Encoding WinAnsiEncoding def
  currentdict
end
/Courier-Bold exch definefont pop
/Helvetica findfont
dup length dict begin
  {1 index /FID ne {def} {pop pop} ifelse} forall
  /Encoding WinAnsiEncoding def
  currentdict
end
/Helvetica exch definefont pop
/Helvetica-Oblique findfont
dup length dict begin
  {1 index /FID ne {def} {pop pop} ifelse} forall
  /Encoding WinAnsiEncoding def
  currentdict
end
/Helvetica-Oblique exch definefont pop
/Helvetica-Bold findfont
dup length dict begin
  {1 index /FID ne {def} {pop pop} ifelse} forall
  /Encoding WinAnsiEncoding def
  currentdict
end
/Helvetica-Bold exch definefont pop
/Helvetica-BoldOblique findfont
dup length dict begin
  {1 index /FID ne {def} {pop pop} ifelse} forall
  /Encoding WinAnsiEncoding def
  currentdict
end
/Helvetica-BoldOblique exch definefont pop
/Times-Roman findfont
dup length dict begin
  {1 index /FID ne {def} {pop pop} ifelse} forall
  /Encoding WinAnsiEncoding def
  currentdict
end
/Times-Roman exch definefont pop
/Times-Italic findfont
dup length dict begin
  {1 index /FID ne {def} {pop pop} ifelse} forall
  /Encoding WinAnsiEncoding def
  currentdict
end
/Times-Italic exch definefont pop
/Times-Bold findfont
dup length dict begin
  {1 index /FID ne {def} {pop pop} ifelse} forall
  /Encoding WinAnsiEncoding def
  currentdict
end
/Times-Bold exch definefont pop
/Times-BoldItalic findfont
dup length dict begin
  {1 index /FID ne {def} {pop pop} ifelse} forall
  /Encoding WinAnsiEncoding def
  currentdict
end
/Times-BoldItalic exch definefont pop
/Courier findfont
dup length dict begin
  {1 index /FID ne {def} {pop pop} ifelse} forall
  /Encoding WinAnsiEncoding def
  currentdict
end
/Courier exch definefont pop
%FOPEndFontReencode
%%EndProlog
%%Page: 1 1
%%PageBoundingBox: 0 0 1025 488
%%BeginPageSetup
[1 0 0 -1 0 488] CT
%%EndPageSetup
GS
[0.75 0 0 0.75 0 -0.25] CT
1 GC
N
0 0 1366 651 re
f
GR
GS
[0.75 0 0 0.75 0 -0.25] CT
1 GC
N
0 0 1366 651 re
f
GR
GS
[0.75 0 0 0.75 0 -0.25] CT
1 GC
N
178 579 M
1236 579 L
1236 49 L
178 49 L
cp
f
GR
GS
[0.75 0 0 0.75 0 -0.25] CT
0.149 GC
2 setlinecap
1 LJ
0.667 LW
N
178 579 M
1236 579 L
S
GR
GS
[0.75 0 0 0.75 0 -0.25] CT
0.149 GC
2 setlinecap
1 LJ
0.667 LW
N
178 49 M
1236 49 L
S
GR
GS
[0.75 0 0 0.75 0 -0.25] CT
0.149 GC
2 setlinecap
1 LJ
0.667 LW
N
178 579 M
178 568.42 L
S
GR
GS
[0.75 0 0 0.75 0 -0.25] CT
0.149 GC
2 setlinecap
1 LJ
0.667 LW
N
283.8 579 M
283.8 568.42 L
S
GR
GS
[0.75 0 0 0.75 0 -0.25] CT
0.149 GC
2 setlinecap
1 LJ
0.667 LW
N
389.6 579 M
389.6 568.42 L
S
GR
GS
[0.75 0 0 0.75 0 -0.25] CT
0.149 GC
2 setlinecap
1 LJ
0.667 LW
N
495.4 579 M
495.4 568.42 L
S
GR
GS
[0.75 0 0 0.75 0 -0.25] CT
0.149 GC
2 setlinecap
1 LJ
0.667 LW
N
601.2 579 M
601.2 568.42 L
S
GR
GS
[0.75 0 0 0.75 0 -0.25] CT
0.149 GC
2 setlinecap
1 LJ
0.667 LW
N
707 579 M
707 568.42 L
S
GR
GS
[0.75 0 0 0.75 0 -0.25] CT
0.149 GC
2 setlinecap
1 LJ
0.667 LW
N
812.8 579 M
812.8 568.42 L
S
GR
GS
[0.75 0 0 0.75 0 -0.25] CT
0.149 GC
2 setlinecap
1 LJ
0.667 LW
N
918.6 579 M
918.6 568.42 L
S
GR
GS
[0.75 0 0 0.75 0 -0.25] CT
0.149 GC
2 setlinecap
1 LJ
0.667 LW
N
1024.4 579 M
1024.4 568.42 L
S
GR
GS
[0.75 0 0 0.75 0 -0.25] CT
0.149 GC
2 setlinecap
1 LJ
0.667 LW
N
1130.2 579 M
1130.2 568.42 L
S
GR
GS
[0.75 0 0 0.75 0 -0.25] CT
0.149 GC
2 setlinecap
1 LJ
0.667 LW
N
1236 579 M
1236 568.42 L
S
GR
GS
[0.75 0 0 0.75 0 -0.25] CT
0.149 GC
2 setlinecap
1 LJ
0.667 LW
N
178 49 M
178 59.58 L
S
GR
GS
[0.75 0 0 0.75 0 -0.25] CT
0.149 GC
2 setlinecap
1 LJ
0.667 LW
N
283.8 49 M
283.8 59.58 L
S
GR
GS
[0.75 0 0 0.75 0 -0.25] CT
0.149 GC
2 setlinecap
1 LJ
0.667 LW
N
389.6 49 M
389.6 59.58 L
S
GR
GS
[0.75 0 0 0.75 0 -0.25] CT
0.149 GC
2 setlinecap
1 LJ
0.667 LW
N
495.4 49 M
495.4 59.58 L
S
GR
GS
[0.75 0 0 0.75 0 -0.25] CT
0.149 GC
2 setlinecap
1 LJ
0.667 LW
N
601.2 49 M
601.2 59.58 L
S
GR
GS
[0.75 0 0 0.75 0 -0.25] CT
0.149 GC
2 setlinecap
1 LJ
0.667 LW
N
707 49 M
707 59.58 L
S
GR
GS
[0.75 0 0 0.75 0 -0.25] CT
0.149 GC
2 setlinecap
1 LJ
0.667 LW
N
812.8 49 M
812.8 59.58 L
S
GR
GS
[0.75 0 0 0.75 0 -0.25] CT
0.149 GC
2 setlinecap
1 LJ
0.667 LW
N
918.6 49 M
918.6 59.58 L
S
GR
GS
[0.75 0 0 0.75 0 -0.25] CT
0.149 GC
2 setlinecap
1 LJ
0.667 LW
N
1024.4 49 M
1024.4 59.58 L
S
GR
GS
[0.75 0 0 0.75 0 -0.25] CT
0.149 GC
2 setlinecap
1 LJ
0.667 LW
N
1130.2 49 M
1130.2 59.58 L
S
GR
GS
[0.75 0 0 0.75 0 -0.25] CT
0.149 GC
2 setlinecap
1 LJ
0.667 LW
N
1236 49 M
1236 59.58 L
S
GR
GS
[0.75 0 0 0.75 133.5 437.99998] CT
0.149 GC
/Helvetica 13.333 F
GS
[1 0 0 1 0 0] CT
-4 14 moveto 
1 -1 scale
(0) t 
GR
GR
GS
[0.75 0 0 0.75 212.84999 437.99998] CT
0.149 GC
/Helvetica 13.333 F
GS
[1 0 0 1 0 0] CT
-11.5 14 moveto 
1 -1 scale
(100) t 
GR
GR
GS
[0.75 0 0 0.75 292.2 437.99998] CT
0.149 GC
/Helvetica 13.333 F
GS
[1 0 0 1 0 0] CT
-11.5 14 moveto 
1 -1 scale
(200) t 
GR
GR
GS
[0.75 0 0 0.75 371.55 437.99998] CT
0.149 GC
/Helvetica 13.333 F
GS
[1 0 0 1 0 0] CT
-11.5 14 moveto 
1 -1 scale
(300) t 
GR
GR
GS
[0.75 0 0 0.75 450.90001 437.99998] CT
0.149 GC
/Helvetica 13.333 F
GS
[1 0 0 1 0 0] CT
-11.5 14 moveto 
1 -1 scale
(400) t 
GR
GR
GS
[0.75 0 0 0.75 530.25 437.99998] CT
0.149 GC
/Helvetica 13.333 F
GS
[1 0 0 1 0 0] CT
-11.5 14 moveto 
1 -1 scale
(500) t 
GR
GR
GS
[0.75 0 0 0.75 609.59999 437.99998] CT
0.149 GC
/Helvetica 13.333 F
GS
[1 0 0 1 0 0] CT
-11.5 14 moveto 
1 -1 scale
(600) t 
GR
GR
GS
[0.75 0 0 0.75 688.94998 437.99998] CT
0.149 GC
/Helvetica 13.333 F
GS
[1 0 0 1 0 0] CT
-11.5 14 moveto 
1 -1 scale
(700) t 
GR
GR
GS
[0.75 0 0 0.75 768.30002 437.99998] CT
0.149 GC
/Helvetica 13.333 F
GS
[1 0 0 1 0 0] CT
-11.5 14 moveto 
1 -1 scale
(800) t 
GR
GR
GS
[0.75 0 0 0.75 847.64996 437.99998] CT
0.149 GC
/Helvetica 13.333 F
GS
[1 0 0 1 0 0] CT
-11.5 14 moveto 
1 -1 scale
(900) t 
GR
GR
GS
[0.75 0 0 0.75 927 437.99998] CT
0.149 GC
/Helvetica 13.333 F
GS
[1 0 0 1 0 0] CT
-15 14 moveto 
1 -1 scale
(1000) t 
GR
GR
GS
[0.75 0 0 0.75 530.25037 451.75002] CT
0.149 GC
/Helvetica 14.667 F
GS
[1 0 0 1 0 0] CT
-42.5 15 moveto 
1 -1 scale
(Repeticiones) t 
GR
GR
GS
[0.75 0 0 0.75 0 -0.25] CT
0.149 GC
2 setlinecap
1 LJ
0.667 LW
N
178 579 M
178 49 L
S
GR
GS
[0.75 0 0 0.75 0 -0.25] CT
0.149 GC
2 setlinecap
1 LJ
0.667 LW
N
1236 579 M
1236 49 L
S
GR
GS
[0.75 0 0 0.75 0 -0.25] CT
0.149 GC
2 setlinecap
1 LJ
0.667 LW
N
178 579 M
188.58 579 L
S
GR
GS
[0.75 0 0 0.75 0 -0.25] CT
0.149 GC
2 setlinecap
1 LJ
0.667 LW
N
178 526 M
188.58 526 L
S
GR
GS
[0.75 0 0 0.75 0 -0.25] CT
0.149 GC
2 setlinecap
1 LJ
0.667 LW
N
178 473 M
188.58 473 L
S
GR
GS
[0.75 0 0 0.75 0 -0.25] CT
0.149 GC
2 setlinecap
1 LJ
0.667 LW
N
178 420 M
188.58 420 L
S
GR
GS
[0.75 0 0 0.75 0 -0.25] CT
0.149 GC
2 setlinecap
1 LJ
0.667 LW
N
178 367 M
188.58 367 L
S
GR
GS
[0.75 0 0 0.75 0 -0.25] CT
0.149 GC
2 setlinecap
1 LJ
0.667 LW
N
178 314 M
188.58 314 L
S
GR
GS
[0.75 0 0 0.75 0 -0.25] CT
0.149 GC
2 setlinecap
1 LJ
0.667 LW
N
178 261 M
188.58 261 L
S
GR
GS
[0.75 0 0 0.75 0 -0.25] CT
0.149 GC
2 setlinecap
1 LJ
0.667 LW
N
178 208 M
188.58 208 L
S
GR
GS
[0.75 0 0 0.75 0 -0.25] CT
0.149 GC
2 setlinecap
1 LJ
0.667 LW
N
178 155 M
188.58 155 L
S
GR
GS
[0.75 0 0 0.75 0 -0.25] CT
0.149 GC
2 setlinecap
1 LJ
0.667 LW
N
178 102 M
188.58 102 L
S
GR
GS
[0.75 0 0 0.75 0 -0.25] CT
0.149 GC
2 setlinecap
1 LJ
0.667 LW
N
178 49 M
188.58 49 L
S
GR
GS
[0.75 0 0 0.75 0 -0.25] CT
0.149 GC
2 setlinecap
1 LJ
0.667 LW
N
1236 579 M
1225.42 579 L
S
GR
GS
[0.75 0 0 0.75 0 -0.25] CT
0.149 GC
2 setlinecap
1 LJ
0.667 LW
N
1236 526 M
1225.42 526 L
S
GR
GS
[0.75 0 0 0.75 0 -0.25] CT
0.149 GC
2 setlinecap
1 LJ
0.667 LW
N
1236 473 M
1225.42 473 L
S
GR
GS
[0.75 0 0 0.75 0 -0.25] CT
0.149 GC
2 setlinecap
1 LJ
0.667 LW
N
1236 420 M
1225.42 420 L
S
GR
GS
[0.75 0 0 0.75 0 -0.25] CT
0.149 GC
2 setlinecap
1 LJ
0.667 LW
N
1236 367 M
1225.42 367 L
S
GR
GS
[0.75 0 0 0.75 0 -0.25] CT
0.149 GC
2 setlinecap
1 LJ
0.667 LW
N
1236 314 M
1225.42 314 L
S
GR
GS
[0.75 0 0 0.75 0 -0.25] CT
0.149 GC
2 setlinecap
1 LJ
0.667 LW
N
1236 261 M
1225.42 261 L
S
GR
GS
[0.75 0 0 0.75 0 -0.25] CT
0.149 GC
2 setlinecap
1 LJ
0.667 LW
N
1236 208 M
1225.42 208 L
S
GR
GS
[0.75 0 0 0.75 0 -0.25] CT
0.149 GC
2 setlinecap
1 LJ
0.667 LW
N
1236 155 M
1225.42 155 L
S
GR
GS
[0.75 0 0 0.75 0 -0.25] CT
0.149 GC
2 setlinecap
1 LJ
0.667 LW
N
1236 102 M
1225.42 102 L
S
GR
GS
[0.75 0 0 0.75 0 -0.25] CT
0.149 GC
2 setlinecap
1 LJ
0.667 LW
N
1236 49 M
1225.42 49 L
S
GR
GS
[0.75 0 0 0.75 129.5 434] CT
0.149 GC
/Helvetica 13.333 F
GS
[1 0 0 1 0 0] CT
-8 5.5 moveto 
1 -1 scale
(0) t 
GR
GR
GS
[0.75 0 0 0.75 129.5 394.25] CT
0.149 GC
/Helvetica 13.333 F
GS
[1 0 0 1 0 0] CT
-19 5.5 moveto 
1 -1 scale
(0.2) t 
GR
GR
GS
[0.75 0 0 0.75 129.5 354.5] CT
0.149 GC
/Helvetica 13.333 F
GS
[1 0 0 1 0 0] CT
-19 5.5 moveto 
1 -1 scale
(0.4) t 
GR
GR
GS
[0.75 0 0 0.75 129.5 314.75] CT
0.149 GC
/Helvetica 13.333 F
GS
[1 0 0 1 0 0] CT
-19 5.5 moveto 
1 -1 scale
(0.6) t 
GR
GR
GS
[0.75 0 0 0.75 129.5 275] CT
0.149 GC
/Helvetica 13.333 F
GS
[1 0 0 1 0 0] CT
-19 5.5 moveto 
1 -1 scale
(0.8) t 
GR
GR
GS
[0.75 0 0 0.75 129.5 235.25] CT
0.149 GC
/Helvetica 13.333 F
GS
[1 0 0 1 0 0] CT
-8 5.5 moveto 
1 -1 scale
(1) t 
GR
GR
GS
[0.75 0 0 0.75 129.5 195.5] CT
0.149 GC
/Helvetica 13.333 F
GS
[1 0 0 1 0 0] CT
-19 5.5 moveto 
1 -1 scale
(1.2) t 
GR
GR
GS
[0.75 0 0 0.75 129.5 155.74999] CT
0.149 GC
/Helvetica 13.333 F
GS
[1 0 0 1 0 0] CT
-19 5.5 moveto 
1 -1 scale
(1.4) t 
GR
GR
GS
[0.75 0 0 0.75 129.5 116.00001] CT
0.149 GC
/Helvetica 13.333 F
GS
[1 0 0 1 0 0] CT
-19 5.5 moveto 
1 -1 scale
(1.6) t 
GR
GR
GS
[0.75 0 0 0.75 129.5 76.24999] CT
0.149 GC
/Helvetica 13.333 F
GS
[1 0 0 1 0 0] CT
-19 5.5 moveto 
1 -1 scale
(1.8) t 
GR
GR
GS
[0.75 0 0 0.75 129.5 36.50001] CT
0.149 GC
/Helvetica 13.333 F
GS
[1 0 0 1 0 0] CT
-8 5.5 moveto 
1 -1 scale
(2) t 
GR
GR
GS
[0 -0.75 0.75 0 112.25 235.24982] CT
0.149 GC
/Helvetica 14.667 F
GS
[1 0 0 1 0 0] CT
-35.5 -4 moveto 
1 -1 scale
(Tiempo \(s\)) t 
GR
GR
GS
[0.75 0 0 0.75 133.5 34.25] CT
0.149 GC
N
1.906 -0.375 M
1.906 -0.469 1.969 -0.563 QT
4.672 -3.25 L
1.969 -5.953 L
1.906 -6.016 1.906 -6.125 QT
1.906 -6.219 1.984 -6.305 QT
2.063 -6.391 2.172 -6.391 QT
2.266 -6.391 2.375 -6.297 QT
5.063 -3.609 L
7.734 -6.297 L
7.844 -6.391 7.922 -6.391 QT
8.031 -6.391 8.109 -6.313 QT
8.188 -6.234 8.188 -6.125 QT
8.188 -6.016 8.125 -5.953 QT
5.422 -3.25 L
8.125 -0.563 L
8.188 -0.469 8.188 -0.375 QT
8.188 -0.266 8.109 -0.188 QT
8.031 -0.109 7.922 -0.109 QT
7.828 -0.109 7.734 -0.203 QT
5.063 -2.891 L
2.375 -0.203 L
2.266 -0.109 2.172 -0.109 QT
2.063 -0.109 1.984 -0.195 QT
1.906 -0.281 1.906 -0.375 QT
cp
f
GR
GS
[0.75 0 0 0.75 141.75 34.25] CT
0.149 GC
/Helvetica 13.333 F
GS
[1 0 0 1 0 0] CT
0 0 moveto 
1 -1 scale
(10) t 
GR
GR
GS
[0.75 0 0 0.75 153 29.75] CT
0.149 GC
/Helvetica 10.667 F
GS
[1 0 0 1 0 0] CT
0 0 moveto 
1 -1 scale
(-4) t 
GR
GR
GS
[0.75 0 0 0.75 530.2505 34.4375] CT
/Helvetica-Bold 14.667 F
GS
[1 0 0 1 0 0] CT
-198 -4 moveto 
1 -1 scale
(AND 2 entradas Tiempo de espera con 1000 repeticiones) t 
GR
GR
GS
[0.75 0 0 0.75 0 -0.25] CT
0 0.447 0.741 RC
1 LJ
0.667 LW
N
180.111 48.937 M
180.116 233.796 L
180.372 48.937 L
S
GR
GS
[0.75 0 0 0.75 0 -0.25] CT
0 0.447 0.741 RC
1 LJ
0.667 LW
N
181.855 48.937 M
182.232 369.877 L
183.29 126.733 L
184.348 320.848 L
185.406 314.844 L
186.464 170.759 L
187.522 96.715 L
188.58 402.896 L
189.638 358.87 L
190.696 218.787 L
191.754 226.792 L
192.812 240.8 L
193.87 182.766 L
194.928 469.936 L
195.986 453.926 L
197.044 443.92 L
198.102 484.944 L
199.16 422.908 L
200.218 431.913 L
201.276 430.913 L
202.334 486.946 L
203.392 427.911 L
204.45 463.932 L
205.508 445.921 L
206.566 493.95 L
207.624 447.923 L
208.682 516.963 L
209.74 453.926 L
210.798 436.916 L
211.856 478.941 L
212.914 429.912 L
213.972 513.962 L
215.03 486.946 L
216.088 489.947 L
217.146 447.923 L
218.204 465.933 L
219.262 445.921 L
220.32 467.934 L
221.378 448.923 L
222.436 430.913 L
223.494 483.944 L
224.552 476.94 L
225.61 475.939 L
226.668 446.922 L
227.726 442.92 L
228.784 478.941 L
229.842 520.966 L
230.9 494.95 L
231.958 519.965 L
233.016 486.946 L
234.074 500.954 L
235.132 512.961 L
236.19 499.953 L
237.248 509.959 L
238.306 486.946 L
239.364 511.96 L
240.422 414.903 L
241.48 470.936 L
242.538 72.701 L
243.596 444.921 L
244.654 481.943 L
245.712 469.936 L
246.77 495.951 L
247.828 475.939 L
248.886 519.965 L
249.944 496.952 L
251.002 500.954 L
252.06 498.953 L
253.118 448.923 L
254.176 453.926 L
255.234 451.925 L
256.292 427.911 L
257.35 222.79 L
258.408 482.943 L
259.466 490.948 L
260.524 479.942 L
261.582 477.94 L
262.64 495.951 L
263.698 489.947 L
264.756 496.952 L
265.814 490.948 L
266.872 476.94 L
267.93 462.931 L
268.988 450.924 L
270.046 418.906 L
271.104 477.94 L
272.162 482.943 L
273.22 461.931 L
274.278 434.915 L
275.336 455.927 L
276.394 506.957 L
277.452 478.941 L
278.51 521.966 L
279.568 517.964 L
280.626 483.944 L
281.684 481.943 L
282.742 478.941 L
283.8 484.944 L
284.858 483.944 L
285.916 450.924 L
286.974 485.945 L
288.032 448.923 L
289.09 392.89 L
290.148 234.797 L
291.206 430.913 L
292.264 426.91 L
293.322 379.882 L
294.38 385.886 L
295.438 497.952 L
296.496 482.943 L
297.554 433.914 L
298.612 481.943 L
299.67 446.922 L
300.728 497.952 L
301.786 495.951 L
302.844 470.936 L
303.902 456.928 L
304.96 427.911 L
306.018 515.963 L
307.076 444.921 L
308.134 431.913 L
309.192 515.963 L
310.25 452.926 L
311.308 461.931 L
312.366 493.95 L
313.424 512.961 L
314.482 457.929 L
315.54 495.951 L
316.598 439.918 L
317.656 488.947 L
318.714 471.937 L
319.772 492.949 L
320.83 457.929 L
321.888 455.927 L
322.946 517.964 L
324.004 458.929 L
325.062 487.946 L
326.12 460.93 L
327.178 430.913 L
328.236 479.942 L
329.294 448.923 L
330.352 459.93 L
331.41 369.877 L
332.468 460.93 L
333.526 509.959 L
334.584 452.926 L
335.642 448.923 L
336.7 487.946 L
337.758 453.926 L
338.816 465.933 L
339.874 461.931 L
340.932 492.949 L
341.99 484.944 L
343.048 429.912 L
344.106 445.921 L
345.164 471.937 L
346.222 521.966 L
347.28 497.952 L
348.338 459.93 L
349.396 447.923 L
350.454 446.922 L
351.512 485.945 L
352.57 464.933 L
353.628 464.933 L
354.686 515.963 L
355.744 526.969 L
356.802 495.951 L
357.86 502.955 L
358.918 466.934 L
359.976 453.926 L
361.034 497.952 L
362.092 522.967 L
363.15 459.93 L
364.208 457.929 L
365.266 474.939 L
366.324 517.964 L
367.382 506.957 L
368.44 448.923 L
369.498 464.933 L
370.556 485.945 L
371.614 524.968 L
372.672 494.95 L
373.73 516.963 L
374.788 524.968 L
375.846 455.927 L
376.904 439.918 L
377.962 492.949 L
379.02 488.947 L
380.078 495.951 L
381.136 494.95 L
382.194 460.93 L
383.252 234.797 L
384.31 431.913 L
385.368 447.923 L
386.426 512.961 L
387.484 453.926 L
388.542 429.912 L
389.6 457.929 L
390.658 483.944 L
391.716 450.924 L
392.774 498.953 L
393.832 452.926 L
394.89 516.963 L
395.948 444.921 L
397.006 468.935 L
398.064 516.963 L
399.122 458.929 L
400.18 471.937 L
401.238 440.919 L
402.296 491.949 L
403.354 494.95 L
404.412 517.964 L
405.47 464.933 L
406.528 442.92 L
407.586 516.963 L
408.644 430.913 L
409.702 484.944 L
410.76 447.923 L
411.818 442.92 L
412.876 514.962 L
413.934 523.968 L
414.992 442.92 L
416.05 487.946 L
417.108 521.966 L
418.166 444.921 L
419.224 521.966 L
420.282 466.934 L
421.34 487.946 L
422.398 517.964 L
423.456 521.966 L
424.514 498.953 L
425.572 468.935 L
426.63 447.923 L
427.688 467.934 L
428.746 447.923 L
429.804 492.949 L
430.862 499.953 L
431.92 495.951 L
432.978 455.927 L
434.036 454.927 L
435.094 435.916 L
436.152 464.933 L
437.21 488.947 L
438.268 453.926 L
439.326 486.946 L
440.384 474.939 L
441.442 462.931 L
442.5 487.946 L
443.558 450.924 L
444.616 517.964 L
445.674 528.97 L
446.732 523.968 L
447.79 464.933 L
448.848 473.938 L
449.906 526.969 L
450.964 494.95 L
452.022 442.92 L
453.08 473.938 L
454.138 466.934 L
455.196 478.941 L
456.254 520.966 L
457.312 438.917 L
458.37 453.926 L
459.428 468.935 L
460.486 468.935 L
461.544 482.943 L
462.602 441.919 L
463.66 476.94 L
464.718 456.928 L
465.776 492.949 L
466.834 527.97 L
467.892 496.952 L
468.95 482.943 L
470.008 526.969 L
471.066 478.941 L
472.124 465.933 L
473.182 463.932 L
474.24 468.935 L
475.298 494.95 L
476.356 524.968 L
477.414 475.939 L
478.472 472.937 L
479.53 448.923 L
480.588 452.926 L
481.646 451.925 L
482.704 491.949 L
483.762 500.954 L
484.82 493.95 L
485.878 468.935 L
486.936 451.925 L
487.994 442.92 L
489.052 524.968 L
490.11 526.969 L
491.168 461.931 L
492.226 522.967 L
493.284 445.921 L
494.342 491.949 L
495.4 443.92 L
496.458 466.934 L
497.516 460.93 L
498.574 436.916 L
499.632 451.925 L
500.69 439.918 L
501.748 474.939 L
502.806 496.952 L
503.864 493.95 L
504.922 504.956 L
505.98 496.952 L
507.038 496.952 L
508.096 459.93 L
509.154 461.931 L
510.212 443.92 L
511.27 440.919 L
512.328 487.946 L
513.386 521.966 L
514.444 482.943 L
515.502 454.927 L
516.56 458.929 L
517.618 492.949 L
518.676 477.94 L
519.734 492.949 L
520.792 463.932 L
521.85 487.946 L
522.908 503.956 L
523.966 507.958 L
525.024 493.95 L
526.082 502.955 L
527.14 479.942 L
528.198 457.929 L
529.256 503.956 L
530.314 478.941 L
531.372 476.94 L
532.43 531.972 L
533.488 462.931 L
534.546 470.936 L
535.604 529.971 L
536.662 475.939 L
537.72 461.931 L
538.778 504.956 L
539.836 525.969 L
540.894 527.97 L
541.952 503.956 L
543.01 525.969 L
544.068 449.924 L
545.126 502.955 L
546.184 510.96 L
547.242 523.968 L
548.3 461.931 L
549.358 520.966 L
550.416 485.945 L
551.474 161.754 L
552.532 473.938 L
553.59 432.914 L
554.648 493.95 L
555.706 495.951 L
556.764 503.956 L
557.822 453.926 L
558.88 525.969 L
559.938 471.937 L
560.996 523.968 L
562.054 477.94 L
563.112 466.934 L
564.17 477.94 L
565.228 497.952 L
566.286 504.956 L
567.344 482.943 L
568.402 497.952 L
569.46 456.928 L
570.518 476.94 L
571.576 532.973 L
572.634 482.943 L
573.692 529.971 L
574.75 481.943 L
575.808 525.969 L
576.866 450.924 L
577.924 498.953 L
578.982 518.965 L
580.04 456.928 L
581.098 464.933 L
582.156 449.924 L
583.214 479.942 L
584.272 472.937 L
585.33 452.926 L
586.388 526.969 L
587.446 509.959 L
588.504 465.933 L
589.562 483.944 L
590.62 506.957 L
591.678 470.936 L
592.736 457.929 L
593.794 511.96 L
594.852 471.937 L
595.91 470.936 L
596.968 464.933 L
598.026 428.911 L
599.084 450.924 L
600.142 503.956 L
601.2 462.931 L
602.258 493.95 L
603.316 500.954 L
604.374 498.953 L
605.432 472.937 L
606.49 471.937 L
607.548 476.94 L
608.606 477.94 L
609.664 457.929 L
610.722 476.94 L
611.78 473.938 L
612.838 467.934 L
613.896 455.927 L
614.954 466.934 L
616.012 522.967 L
617.07 449.924 L
618.128 475.939 L
619.186 500.954 L
620.244 479.942 L
621.302 473.938 L
622.36 473.938 L
623.418 380.883 L
624.476 491.949 L
625.534 503.956 L
626.592 453.926 L
627.65 456.928 L
628.708 519.965 L
629.766 499.953 L
630.824 473.938 L
631.882 466.934 L
632.94 497.952 L
633.998 472.937 L
635.056 520.966 L
636.114 465.933 L
637.172 482.943 L
638.23 498.953 L
639.288 504.956 L
640.346 522.967 L
641.404 457.929 L
642.462 471.937 L
643.52 499.953 L
644.578 502.955 L
645.636 498.953 L
646.694 468.935 L
647.752 496.952 L
648.81 454.927 L
649.868 501.955 L
650.926 482.943 L
651.984 458.929 L
653.042 467.934 L
654.1 496.952 L
655.158 482.943 L
656.216 527.97 L
657.274 470.936 L
658.332 498.953 L
659.39 505.957 L
660.448 502.955 L
661.506 491.949 L
662.564 499.953 L
663.622 475.939 L
664.68 496.952 L
665.738 496.952 L
666.796 499.953 L
667.854 474.939 L
668.912 471.937 L
669.97 495.951 L
671.028 518.965 L
672.086 456.928 L
673.144 525.969 L
674.202 531.972 L
675.26 470.936 L
676.318 468.935 L
677.376 499.953 L
678.434 521.966 L
679.492 498.953 L
680.55 528.97 L
681.608 470.936 L
682.666 445.921 L
683.724 496.952 L
684.782 498.953 L
685.84 501.955 L
686.898 522.967 L
687.956 494.95 L
689.014 525.969 L
690.072 456.928 L
691.13 523.968 L
692.188 454.927 L
693.246 464.933 L
694.304 495.951 L
695.362 473.938 L
696.42 451.925 L
697.478 468.935 L
698.536 452.926 L
699.594 467.934 L
700.652 465.933 L
701.71 487.946 L
702.768 453.926 L
703.826 498.953 L
704.884 489.947 L
705.942 521.966 L
707 240.8 L
708.058 426.91 L
709.116 447.923 L
710.174 452.926 L
711.232 475.939 L
712.29 460.93 L
713.348 472.937 L
714.406 468.935 L
715.464 500.954 L
716.522 468.935 L
717.58 526.969 L
718.638 455.927 L
719.696 455.927 L
720.754 501.955 L
721.812 522.967 L
722.87 504.956 L
723.928 466.934 L
724.986 503.956 L
726.044 501.955 L
727.102 239.8 L
728.16 456.928 L
729.218 533.973 L
730.276 534.974 L
731.334 502.955 L
732.392 446.922 L
733.45 422.908 L
734.508 457.929 L
735.566 442.92 L
736.624 454.927 L
737.682 334.856 L
738.74 406.898 L
739.798 430.913 L
740.856 513.962 L
741.914 394.891 L
742.972 428.911 L
744.03 395.892 L
745.088 365.874 L
746.146 484.944 L
747.204 374.88 L
748.262 483.944 L
749.32 354.868 L
750.378 488.947 L
751.436 477.94 L
752.494 491.949 L
753.552 504.956 L
754.61 477.94 L
755.668 443.92 L
756.726 446.922 L
757.784 369.877 L
758.842 323.849 L
759.9 434.915 L
760.958 65.697 L
762.016 455.927 L
763.074 489.947 L
764.132 460.93 L
765.19 463.932 L
766.248 502.955 L
767.306 421.907 L
768.364 481.943 L
769.422 469.936 L
770.48 473.938 L
771.538 499.953 L
772.596 508.959 L
773.654 462.931 L
774.712 461.931 L
775.77 484.944 L
776.828 472.937 L
777.886 503.956 L
778.944 482.943 L
780.002 530.972 L
781.06 510.96 L
782.118 530.972 L
783.176 476.94 L
784.234 375.88 L
785.292 477.94 L
786.35 463.932 L
787.408 508.959 L
788.466 531.972 L
789.524 463.932 L
790.582 507.958 L
791.64 475.939 L
792.698 461.931 L
793.756 486.946 L
794.814 508.959 L
795.872 509.959 L
796.93 474.939 L
797.988 532.973 L
799.046 533.973 L
800.104 532.973 L
801.162 465.933 L
802.22 485.945 L
803.278 453.926 L
804.336 521.966 L
805.394 478.941 L
806.452 480.942 L
807.51 481.943 L
808.568 479.942 L
809.626 511.96 L
810.684 512.961 L
811.742 510.96 L
812.8 481.943 L
813.858 472.937 L
814.916 482.943 L
815.974 529.971 L
817.032 479.942 L
818.09 480.942 L
819.148 490.948 L
820.206 470.936 L
821.264 511.96 L
822.322 481.943 L
823.38 514.962 L
824.438 513.962 L
825.496 513.962 L
826.554 493.95 L
827.612 490.948 L
828.67 348.864 L
829.728 492.949 L
830.786 481.943 L
831.844 512.961 L
832.902 491.949 L
833.96 470.936 L
835.018 472.937 L
836.076 532.973 L
837.134 494.95 L
838.192 485.945 L
839.25 491.949 L
840.308 513.962 L
841.366 483.944 L
842.424 512.961 L
843.482 515.963 L
844.54 513.962 L
845.598 484.944 L
846.656 514.962 L
847.714 513.962 L
848.772 482.943 L
849.83 514.962 L
850.888 494.95 L
851.946 535.975 L
853.004 482.943 L
854.062 513.962 L
855.12 482.943 L
856.178 469.936 L
857.236 508.959 L
858.294 474.939 L
859.352 506.957 L
860.41 472.937 L
861.468 494.95 L
862.526 505.957 L
863.584 513.962 L
864.642 515.963 L
865.7 511.96 L
866.758 512.961 L
867.816 492.949 L
868.874 513.962 L
869.932 482.943 L
870.99 493.95 L
872.048 483.944 L
873.106 482.943 L
874.164 513.962 L
875.222 493.95 L
876.28 482.943 L
877.338 514.962 L
878.396 513.962 L
879.454 535.975 L
880.512 513.962 L
881.57 490.948 L
882.628 511.96 L
883.686 472.937 L
884.744 513.962 L
885.802 482.943 L
886.86 510.96 L
887.918 478.941 L
888.976 511.96 L
890.034 398.894 L
891.092 479.942 L
892.15 521.966 L
893.208 512.961 L
894.266 510.96 L
895.324 512.961 L
896.382 490.948 L
897.44 509.959 L
898.498 533.973 L
899.556 467.934 L
900.614 479.942 L
901.672 510.96 L
902.73 507.958 L
903.788 510.96 L
904.846 463.932 L
905.904 508.959 L
906.962 512.961 L
908.02 480.942 L
909.078 533.973 L
910.136 471.937 L
911.194 532.973 L
912.252 474.939 L
913.31 512.961 L
914.368 495.951 L
915.426 533.973 L
916.484 514.962 L
917.542 532.973 L
918.6 513.962 L
919.658 413.903 L
920.716 471.937 L
921.774 489.947 L
922.832 479.942 L
923.89 512.961 L
924.948 482.943 L
926.006 506.957 L
927.064 478.941 L
928.122 512.961 L
929.18 491.949 L
930.238 471.937 L
931.296 512.961 L
932.354 512.961 L
933.412 493.95 L
934.47 473.938 L
935.528 469.936 L
936.586 494.95 L
937.644 534.974 L
938.702 493.95 L
939.76 512.961 L
940.818 534.974 L
941.876 476.94 L
942.934 535.975 L
943.992 514.962 L
945.05 472.937 L
946.108 512.961 L
947.166 512.961 L
948.224 533.973 L
949.282 514.962 L
950.34 534.974 L
951.398 473.938 L
952.456 491.949 L
953.514 534.974 L
954.572 535.975 L
955.63 492.949 L
956.688 513.962 L
957.746 473.938 L
958.804 512.961 L
959.862 493.95 L
960.92 394.891 L
961.978 428.911 L
963.036 506.957 L
964.094 489.947 L
965.152 501.955 L
966.21 487.946 L
967.268 491.949 L
968.326 473.938 L
969.384 514.962 L
970.442 483.944 L
971.5 492.949 L
972.558 535.975 L
973.616 514.962 L
974.674 474.939 L
975.732 473.938 L
976.79 494.95 L
977.848 483.944 L
978.906 494.95 L
979.964 514.962 L
981.022 493.95 L
982.08 474.939 L
983.138 534.974 L
984.196 533.973 L
985.254 512.961 L
986.312 534.974 L
987.37 473.938 L
988.428 512.961 L
989.486 533.973 L
990.544 536.975 L
991.602 473.938 L
992.66 511.96 L
993.718 458.929 L
994.776 493.95 L
995.834 536.975 L
996.892 475.939 L
997.95 512.961 L
999.008 492.949 L
1000.066 513.962 L
1001.124 493.95 L
1002.182 483.944 L
1003.24 532.973 L
1004.298 515.963 L
1005.356 494.95 L
1006.414 474.939 L
1007.472 514.962 L
1008.53 536.975 L
1009.588 515.963 L
1010.646 535.975 L
1011.704 514.962 L
1012.762 536.975 L
1013.82 485.945 L
1014.878 493.95 L
1015.936 494.95 L
1016.994 515.963 L
1018.052 474.939 L
1019.11 482.943 L
1020.168 492.949 L
1021.226 531.972 L
1022.284 470.936 L
1023.342 470.936 L
1024.4 534.974 L
1025.458 513.962 L
1026.516 511.96 L
1027.574 483.944 L
1028.632 504.956 L
1029.69 469.936 L
1030.748 468.935 L
1031.806 507.958 L
1032.864 513.962 L
1033.922 513.962 L
1034.98 473.938 L
1036.038 510.96 L
1037.096 477.94 L
1038.154 512.961 L
1039.212 533.973 L
1040.27 514.962 L
1041.328 492.949 L
1042.386 513.962 L
1043.444 473.938 L
1044.502 514.962 L
1045.56 513.962 L
1046.618 471.937 L
1047.676 475.939 L
1048.734 492.949 L
1049.792 514.962 L
1050.85 484.944 L
1051.908 464.933 L
1052.966 488.947 L
1054.024 473.938 L
1055.082 534.974 L
1056.14 474.939 L
1057.198 485.945 L
1058.256 484.944 L
1059.314 536.975 L
1060.372 492.949 L
1061.43 425.91 L
1062.488 498.953 L
1063.546 511.96 L
1064.604 507.958 L
1065.662 486.946 L
1066.72 473.938 L
1067.778 507.958 L
1068.836 510.96 L
1069.894 520.966 L
1070.952 482.943 L
1072.01 491.949 L
1073.068 535.975 L
1074.126 518.965 L
1075.184 537.976 L
1076.242 483.944 L
1077.3 517.964 L
1078.358 511.96 L
1079.416 502.955 L
1080.474 508.959 L
1081.532 534.974 L
1082.59 478.941 L
1083.648 509.959 L
1084.706 488.947 L
1085.764 472.937 L
1086.822 532.973 L
1087.88 511.96 L
1088.938 469.936 L
1089.996 491.949 L
1091.054 469.936 L
1092.112 490.948 L
1093.17 469.936 L
1094.228 473.938 L
1095.286 520.966 L
1096.344 508.959 L
1097.402 507.958 L
1098.46 506.957 L
1099.518 509.959 L
1100.576 477.94 L
1101.634 478.941 L
1102.692 511.96 L
1103.75 511.96 L
1104.808 490.948 L
1105.866 490.948 L
1106.924 459.93 L
1107.982 532.973 L
1109.04 482.943 L
1110.098 511.96 L
1111.156 511.96 L
1112.214 532.973 L
1113.272 464.933 L
1114.33 511.96 L
1115.388 511.96 L
1116.446 480.942 L
1117.504 470.936 L
1118.562 514.962 L
1119.62 532.973 L
1120.678 510.96 L
1121.736 470.936 L
1122.794 467.934 L
1123.852 490.948 L
1124.91 469.936 L
1125.968 442.92 L
1127.026 530.972 L
1128.084 479.942 L
1129.142 532.973 L
1130.2 534.974 L
1131.258 534.974 L
1132.316 470.936 L
1133.374 508.959 L
1134.432 487.946 L
1135.49 474.939 L
1136.548 509.959 L
1137.606 470.936 L
1138.664 533.973 L
1139.722 511.96 L
1140.78 512.961 L
1141.838 479.942 L
1142.896 465.933 L
1143.954 511.96 L
1145.012 469.936 L
1146.07 512.961 L
1147.128 507.958 L
1148.186 488.947 L
1149.244 478.941 L
1150.302 509.959 L
1151.36 461.931 L
1152.418 511.96 L
1153.476 511.96 L
1154.534 467.934 L
1155.592 507.958 L
1156.65 506.957 L
1157.708 484.944 L
1158.766 500.954 L
1159.824 474.939 L
1160.882 430.913 L
1161.94 432.914 L
1162.998 453.926 L
1164.056 460.93 L
1165.114 482.943 L
1166.172 471.937 L
1167.23 508.959 L
1168.288 504.956 L
1169.346 466.934 L
1170.404 507.958 L
1171.462 466.934 L
1172.52 532.973 L
1173.578 486.946 L
1174.636 508.959 L
1175.694 532.973 L
1176.752 487.946 L
1177.81 461.931 L
1178.868 478.941 L
1179.926 466.934 L
1180.984 532.973 L
1182.042 466.934 L
1183.1 464.933 L
1184.158 532.973 L
1185.216 499.953 L
1186.274 466.934 L
1187.332 479.942 L
1188.39 487.946 L
1189.448 467.934 L
1190.506 489.947 L
1191.564 466.934 L
1192.622 533.973 L
1193.68 511.96 L
1194.738 477.94 L
1195.796 534.974 L
1196.854 491.949 L
1197.912 533.973 L
1198.97 490.948 L
1200.028 467.934 L
1201.086 512.961 L
1202.144 512.961 L
1203.202 492.949 L
1204.26 472.937 L
1205.318 477.94 L
1206.376 522.967 L
1207.434 505.957 L
1208.492 488.947 L
1209.55 479.942 L
1210.608 525.969 L
1211.666 486.946 L
1212.724 465.933 L
1213.782 514.962 L
1214.84 480.942 L
1215.898 505.957 L
1216.956 498.953 L
1218.014 477.94 L
1219.072 437.917 L
1220.13 480.942 L
1221.188 445.921 L
1222.246 465.933 L
1223.304 505.957 L
1224.362 415.904 L
1225.42 424.909 L
1226.478 435.916 L
1227.536 284.826 L
1228.594 490.948 L
1229.652 498.953 L
1230.71 474.939 L
1231.768 499.953 L
1232.826 496.952 L
1233.884 460.93 L
1234.942 455.927 L
1236 191.771 L
S
GR
%%Trailer
%%Pages: 1
%%EOF
