%!PS-Adobe-3.0 EPSF-3.0
%%Creator: (MATLAB, The Mathworks, Inc. Version 9.5.0.944444 \(R2018b\). Operating System: Windows 10)
%%Title: (C:/Users/david/Google Drive/MAESTRIA/SEMESTRE 2/INTELIGENIA COMPUTACIONAL/talleres/taller 1/and3_1mrept.eps)
%%CreationDate: 2019-03-03T19:34:21
%%Pages: (atend)
%%BoundingBox: 0 0 420 315
%%LanguageLevel: 3
%%EndComments
%%BeginProlog
%%BeginResource: procset (Apache XML Graphics Std ProcSet) 1.2 0
%%Version: 1.2 0
%%Copyright: (Copyright 2001-2003,2010 The Apache Software Foundation. License terms: http://www.apache.org/licenses/LICENSE-2.0)
/bd{bind def}bind def
/ld{load def}bd
/GR/grestore ld
/GS/gsave ld
/RM/rmoveto ld
/C/curveto ld
/t/show ld
/L/lineto ld
/ML/setmiterlimit ld
/CT/concat ld
/f/fill ld
/N/newpath ld
/S/stroke ld
/CC/setcmykcolor ld
/A/ashow ld
/cp/closepath ld
/RC/setrgbcolor ld
/LJ/setlinejoin ld
/GC/setgray ld
/LW/setlinewidth ld
/M/moveto ld
/re {4 2 roll M
1 index 0 rlineto
0 exch rlineto
neg 0 rlineto
cp } bd
/_ctm matrix def
/_tm matrix def
/BT { _ctm currentmatrix pop matrix _tm copy pop 0 0 moveto } bd
/ET { _ctm setmatrix } bd
/iTm { _ctm setmatrix _tm concat } bd
/Tm { _tm astore pop iTm 0 0 moveto } bd
/ux 0.0 def
/uy 0.0 def
/F {
  /Tp exch def
  /Tf exch def
  Tf findfont Tp scalefont setfont
  /cf Tf def  /cs Tp def
} bd
/ULS {currentpoint /uy exch def /ux exch def} bd
/ULE {
  /Tcx currentpoint pop def
  gsave
  newpath
  cf findfont cs scalefont dup
  /FontMatrix get 0 get /Ts exch def /FontInfo get dup
  /UnderlinePosition get Ts mul /To exch def
  /UnderlineThickness get Ts mul /Tt exch def
  ux uy To add moveto  Tcx uy To add lineto
  Tt setlinewidth stroke
  grestore
} bd
/OLE {
  /Tcx currentpoint pop def
  gsave
  newpath
  cf findfont cs scalefont dup
  /FontMatrix get 0 get /Ts exch def /FontInfo get dup
  /UnderlinePosition get Ts mul /To exch def
  /UnderlineThickness get Ts mul /Tt exch def
  ux uy To add cs add moveto Tcx uy To add cs add lineto
  Tt setlinewidth stroke
  grestore
} bd
/SOE {
  /Tcx currentpoint pop def
  gsave
  newpath
  cf findfont cs scalefont dup
  /FontMatrix get 0 get /Ts exch def /FontInfo get dup
  /UnderlinePosition get Ts mul /To exch def
  /UnderlineThickness get Ts mul /Tt exch def
  ux uy To add cs 10 mul 26 idiv add moveto Tcx uy To add cs 10 mul 26 idiv add lineto
  Tt setlinewidth stroke
  grestore
} bd
/QT {
/Y22 exch store
/X22 exch store
/Y21 exch store
/X21 exch store
currentpoint
/Y21 load 2 mul add 3 div exch
/X21 load 2 mul add 3 div exch
/X21 load 2 mul /X22 load add 3 div
/Y21 load 2 mul /Y22 load add 3 div
/X22 load /Y22 load curveto
} bd
/SSPD {
dup length /d exch dict def
{
/v exch def
/k exch def
currentpagedevice k known {
/cpdv currentpagedevice k get def
v cpdv ne {
/upd false def
/nullv v type /nulltype eq def
/nullcpdv cpdv type /nulltype eq def
nullv nullcpdv or
{
/upd true def
} {
/sametype v type cpdv type eq def
sametype {
v type /arraytype eq {
/vlen v length def
/cpdvlen cpdv length def
vlen cpdvlen eq {
0 1 vlen 1 sub {
/i exch def
/obj v i get def
/cpdobj cpdv i get def
obj cpdobj ne {
/upd true def
exit
} if
} for
} {
/upd true def
} ifelse
} {
v type /dicttype eq {
v {
/dv exch def
/dk exch def
/cpddv cpdv dk get def
dv cpddv ne {
/upd true def
exit
} if
} forall
} {
/upd true def
} ifelse
} ifelse
} if
} ifelse
upd true eq {
d k v put
} if
} if
} if
} forall
d length 0 gt {
d setpagedevice
} if
} bd
/RE { % /NewFontName [NewEncodingArray] /FontName RE -
  findfont dup length dict begin
  {
    1 index /FID ne
    {def} {pop pop} ifelse
  } forall
  /Encoding exch def
  /FontName 1 index def
  currentdict definefont pop
  end
} bind def
%%EndResource
%%BeginResource: procset (Apache XML Graphics EPS ProcSet) 1.0 0
%%Version: 1.0 0
%%Copyright: (Copyright 2002-2003 The Apache Software Foundation. License terms: http://www.apache.org/licenses/LICENSE-2.0)
/BeginEPSF { %def
/b4_Inc_state save def         % Save state for cleanup
/dict_count countdictstack def % Count objects on dict stack
/op_count count 1 sub def      % Count objects on operand stack
userdict begin                 % Push userdict on dict stack
/showpage { } def              % Redefine showpage, { } = null proc
0 setgray 0 setlinecap         % Prepare graphics state
1 setlinewidth 0 setlinejoin
10 setmiterlimit [ ] 0 setdash newpath
/languagelevel where           % If level not equal to 1 then
{pop languagelevel             % set strokeadjust and
1 ne                           % overprint to their defaults.
{false setstrokeadjust false setoverprint
} if
} if
} bd
/EndEPSF { %def
count op_count sub {pop} repeat            % Clean up stacks
countdictstack dict_count sub {end} repeat
b4_Inc_state restore
} bd
%%EndResource
%FOPBeginFontDict
%%IncludeResource: font Courier-Oblique
%%IncludeResource: font Courier-BoldOblique
%%IncludeResource: font Courier-Bold
%%IncludeResource: font ZapfDingbats
%%IncludeResource: font Symbol
%%IncludeResource: font Helvetica
%%IncludeResource: font Helvetica-Oblique
%%IncludeResource: font Helvetica-Bold
%%IncludeResource: font Helvetica-BoldOblique
%%IncludeResource: font Times-Roman
%%IncludeResource: font Times-Italic
%%IncludeResource: font Times-Bold
%%IncludeResource: font Times-BoldItalic
%%IncludeResource: font Courier
%FOPEndFontDict
%%BeginResource: encoding WinAnsiEncoding
/WinAnsiEncoding [
/.notdef /.notdef /.notdef /.notdef /.notdef
/.notdef /.notdef /.notdef /.notdef /.notdef
/.notdef /.notdef /.notdef /.notdef /.notdef
/.notdef /.notdef /.notdef /.notdef /.notdef
/.notdef /.notdef /.notdef /.notdef /.notdef
/.notdef /.notdef /.notdef /.notdef /.notdef
/.notdef /.notdef /space /exclam /quotedbl
/numbersign /dollar /percent /ampersand /quotesingle
/parenleft /parenright /asterisk /plus /comma
/hyphen /period /slash /zero /one
/two /three /four /five /six
/seven /eight /nine /colon /semicolon
/less /equal /greater /question /at
/A /B /C /D /E
/F /G /H /I /J
/K /L /M /N /O
/P /Q /R /S /T
/U /V /W /X /Y
/Z /bracketleft /backslash /bracketright /asciicircum
/underscore /quoteleft /a /b /c
/d /e /f /g /h
/i /j /k /l /m
/n /o /p /q /r
/s /t /u /v /w
/x /y /z /braceleft /bar
/braceright /asciitilde /bullet /Euro /bullet
/quotesinglbase /florin /quotedblbase /ellipsis /dagger
/daggerdbl /circumflex /perthousand /Scaron /guilsinglleft
/OE /bullet /Zcaron /bullet /bullet
/quoteleft /quoteright /quotedblleft /quotedblright /bullet
/endash /emdash /asciitilde /trademark /scaron
/guilsinglright /oe /bullet /zcaron /Ydieresis
/space /exclamdown /cent /sterling /currency
/yen /brokenbar /section /dieresis /copyright
/ordfeminine /guillemotleft /logicalnot /sfthyphen /registered
/macron /degree /plusminus /twosuperior /threesuperior
/acute /mu /paragraph /middot /cedilla
/onesuperior /ordmasculine /guillemotright /onequarter /onehalf
/threequarters /questiondown /Agrave /Aacute /Acircumflex
/Atilde /Adieresis /Aring /AE /Ccedilla
/Egrave /Eacute /Ecircumflex /Edieresis /Igrave
/Iacute /Icircumflex /Idieresis /Eth /Ntilde
/Ograve /Oacute /Ocircumflex /Otilde /Odieresis
/multiply /Oslash /Ugrave /Uacute /Ucircumflex
/Udieresis /Yacute /Thorn /germandbls /agrave
/aacute /acircumflex /atilde /adieresis /aring
/ae /ccedilla /egrave /eacute /ecircumflex
/edieresis /igrave /iacute /icircumflex /idieresis
/eth /ntilde /ograve /oacute /ocircumflex
/otilde /odieresis /divide /oslash /ugrave
/uacute /ucircumflex /udieresis /yacute /thorn
/ydieresis
] def
%%EndResource
%FOPBeginFontReencode
/Courier-Oblique findfont
dup length dict begin
  {1 index /FID ne {def} {pop pop} ifelse} forall
  /Encoding WinAnsiEncoding def
  currentdict
end
/Courier-Oblique exch definefont pop
/Courier-BoldOblique findfont
dup length dict begin
  {1 index /FID ne {def} {pop pop} ifelse} forall
  /Encoding WinAnsiEncoding def
  currentdict
end
/Courier-BoldOblique exch definefont pop
/Courier-Bold findfont
dup length dict begin
  {1 index /FID ne {def} {pop pop} ifelse} forall
  /Encoding WinAnsiEncoding def
  currentdict
end
/Courier-Bold exch definefont pop
/Helvetica findfont
dup length dict begin
  {1 index /FID ne {def} {pop pop} ifelse} forall
  /Encoding WinAnsiEncoding def
  currentdict
end
/Helvetica exch definefont pop
/Helvetica-Oblique findfont
dup length dict begin
  {1 index /FID ne {def} {pop pop} ifelse} forall
  /Encoding WinAnsiEncoding def
  currentdict
end
/Helvetica-Oblique exch definefont pop
/Helvetica-Bold findfont
dup length dict begin
  {1 index /FID ne {def} {pop pop} ifelse} forall
  /Encoding WinAnsiEncoding def
  currentdict
end
/Helvetica-Bold exch definefont pop
/Helvetica-BoldOblique findfont
dup length dict begin
  {1 index /FID ne {def} {pop pop} ifelse} forall
  /Encoding WinAnsiEncoding def
  currentdict
end
/Helvetica-BoldOblique exch definefont pop
/Times-Roman findfont
dup length dict begin
  {1 index /FID ne {def} {pop pop} ifelse} forall
  /Encoding WinAnsiEncoding def
  currentdict
end
/Times-Roman exch definefont pop
/Times-Italic findfont
dup length dict begin
  {1 index /FID ne {def} {pop pop} ifelse} forall
  /Encoding WinAnsiEncoding def
  currentdict
end
/Times-Italic exch definefont pop
/Times-Bold findfont
dup length dict begin
  {1 index /FID ne {def} {pop pop} ifelse} forall
  /Encoding WinAnsiEncoding def
  currentdict
end
/Times-Bold exch definefont pop
/Times-BoldItalic findfont
dup length dict begin
  {1 index /FID ne {def} {pop pop} ifelse} forall
  /Encoding WinAnsiEncoding def
  currentdict
end
/Times-BoldItalic exch definefont pop
/Courier findfont
dup length dict begin
  {1 index /FID ne {def} {pop pop} ifelse} forall
  /Encoding WinAnsiEncoding def
  currentdict
end
/Courier exch definefont pop
%FOPEndFontReencode
%%EndProlog
%%Page: 1 1
%%PageBoundingBox: 0 0 420 315
%%BeginPageSetup
[1 0 0 -1 0 315] CT
%%EndPageSetup
GS
[0.75 0 0 0.75 0 0] CT
1 GC
N
0 0 560 420 re
f
GR
GS
[0.75 0 0 0.75 0 0] CT
1 GC
N
0 0 560 420 re
f
GR
GS
[0.75 0 0 0.75 0 0] CT
1 GC
N
73 374 M
507 374 L
507 31 L
73 31 L
cp
f
GR
GS
[0.75 0 0 0.75 0 0] CT
0.149 GC
2 setlinecap
1 LJ
0.667 LW
N
73 374 M
507 374 L
S
GR
GS
[0.75 0 0 0.75 0 0] CT
0.149 GC
2 setlinecap
1 LJ
0.667 LW
N
73 31 M
507 31 L
S
GR
GS
[0.75 0 0 0.75 0 0] CT
0.149 GC
2 setlinecap
1 LJ
0.667 LW
N
73 374 M
73 369.66 L
S
GR
GS
[0.75 0 0 0.75 0 0] CT
0.149 GC
2 setlinecap
1 LJ
0.667 LW
N
116.4 374 M
116.4 369.66 L
S
GR
GS
[0.75 0 0 0.75 0 0] CT
0.149 GC
2 setlinecap
1 LJ
0.667 LW
N
159.8 374 M
159.8 369.66 L
S
GR
GS
[0.75 0 0 0.75 0 0] CT
0.149 GC
2 setlinecap
1 LJ
0.667 LW
N
203.2 374 M
203.2 369.66 L
S
GR
GS
[0.75 0 0 0.75 0 0] CT
0.149 GC
2 setlinecap
1 LJ
0.667 LW
N
246.6 374 M
246.6 369.66 L
S
GR
GS
[0.75 0 0 0.75 0 0] CT
0.149 GC
2 setlinecap
1 LJ
0.667 LW
N
290 374 M
290 369.66 L
S
GR
GS
[0.75 0 0 0.75 0 0] CT
0.149 GC
2 setlinecap
1 LJ
0.667 LW
N
333.4 374 M
333.4 369.66 L
S
GR
GS
[0.75 0 0 0.75 0 0] CT
0.149 GC
2 setlinecap
1 LJ
0.667 LW
N
376.8 374 M
376.8 369.66 L
S
GR
GS
[0.75 0 0 0.75 0 0] CT
0.149 GC
2 setlinecap
1 LJ
0.667 LW
N
420.2 374 M
420.2 369.66 L
S
GR
GS
[0.75 0 0 0.75 0 0] CT
0.149 GC
2 setlinecap
1 LJ
0.667 LW
N
463.6 374 M
463.6 369.66 L
S
GR
GS
[0.75 0 0 0.75 0 0] CT
0.149 GC
2 setlinecap
1 LJ
0.667 LW
N
507 374 M
507 369.66 L
S
GR
GS
[0.75 0 0 0.75 0 0] CT
0.149 GC
2 setlinecap
1 LJ
0.667 LW
N
73 31 M
73 35.34 L
S
GR
GS
[0.75 0 0 0.75 0 0] CT
0.149 GC
2 setlinecap
1 LJ
0.667 LW
N
116.4 31 M
116.4 35.34 L
S
GR
GS
[0.75 0 0 0.75 0 0] CT
0.149 GC
2 setlinecap
1 LJ
0.667 LW
N
159.8 31 M
159.8 35.34 L
S
GR
GS
[0.75 0 0 0.75 0 0] CT
0.149 GC
2 setlinecap
1 LJ
0.667 LW
N
203.2 31 M
203.2 35.34 L
S
GR
GS
[0.75 0 0 0.75 0 0] CT
0.149 GC
2 setlinecap
1 LJ
0.667 LW
N
246.6 31 M
246.6 35.34 L
S
GR
GS
[0.75 0 0 0.75 0 0] CT
0.149 GC
2 setlinecap
1 LJ
0.667 LW
N
290 31 M
290 35.34 L
S
GR
GS
[0.75 0 0 0.75 0 0] CT
0.149 GC
2 setlinecap
1 LJ
0.667 LW
N
333.4 31 M
333.4 35.34 L
S
GR
GS
[0.75 0 0 0.75 0 0] CT
0.149 GC
2 setlinecap
1 LJ
0.667 LW
N
376.8 31 M
376.8 35.34 L
S
GR
GS
[0.75 0 0 0.75 0 0] CT
0.149 GC
2 setlinecap
1 LJ
0.667 LW
N
420.2 31 M
420.2 35.34 L
S
GR
GS
[0.75 0 0 0.75 0 0] CT
0.149 GC
2 setlinecap
1 LJ
0.667 LW
N
463.6 31 M
463.6 35.34 L
S
GR
GS
[0.75 0 0 0.75 0 0] CT
0.149 GC
2 setlinecap
1 LJ
0.667 LW
N
507 31 M
507 35.34 L
S
GR
GS
[0.75 0 0 0.75 54.75 284.50001] CT
0.149 GC
/Helvetica 13.333 F
GS
[1 0 0 1 0 0] CT
-4 14 moveto 
1 -1 scale
(0) t 
GR
GR
GS
[0.75 0 0 0.75 87.3 284.50001] CT
0.149 GC
/Helvetica 13.333 F
GS
[1 0 0 1 0 0] CT
-11.5 14 moveto 
1 -1 scale
(100) t 
GR
GR
GS
[0.75 0 0 0.75 119.85 284.50001] CT
0.149 GC
/Helvetica 13.333 F
GS
[1 0 0 1 0 0] CT
-11.5 14 moveto 
1 -1 scale
(200) t 
GR
GR
GS
[0.75 0 0 0.75 152.4 284.50001] CT
0.149 GC
/Helvetica 13.333 F
GS
[1 0 0 1 0 0] CT
-11.5 14 moveto 
1 -1 scale
(300) t 
GR
GR
GS
[0.75 0 0 0.75 184.95 284.50001] CT
0.149 GC
/Helvetica 13.333 F
GS
[1 0 0 1 0 0] CT
-11.5 14 moveto 
1 -1 scale
(400) t 
GR
GR
GS
[0.75 0 0 0.75 217.5 284.50001] CT
0.149 GC
/Helvetica 13.333 F
GS
[1 0 0 1 0 0] CT
-11.5 14 moveto 
1 -1 scale
(500) t 
GR
GR
GS
[0.75 0 0 0.75 250.05 284.50001] CT
0.149 GC
/Helvetica 13.333 F
GS
[1 0 0 1 0 0] CT
-11.5 14 moveto 
1 -1 scale
(600) t 
GR
GR
GS
[0.75 0 0 0.75 282.59999 284.50001] CT
0.149 GC
/Helvetica 13.333 F
GS
[1 0 0 1 0 0] CT
-11.5 14 moveto 
1 -1 scale
(700) t 
GR
GR
GS
[0.75 0 0 0.75 315.15001 284.50001] CT
0.149 GC
/Helvetica 13.333 F
GS
[1 0 0 1 0 0] CT
-11.5 14 moveto 
1 -1 scale
(800) t 
GR
GR
GS
[0.75 0 0 0.75 347.7 284.50001] CT
0.149 GC
/Helvetica 13.333 F
GS
[1 0 0 1 0 0] CT
-11.5 14 moveto 
1 -1 scale
(900) t 
GR
GR
GS
[0.75 0 0 0.75 380.25 284.50001] CT
0.149 GC
/Helvetica 13.333 F
GS
[1 0 0 1 0 0] CT
-15 14 moveto 
1 -1 scale
(1000) t 
GR
GR
GS
[0.75 0 0 0.75 0 0] CT
0.149 GC
2 setlinecap
1 LJ
0.667 LW
N
73 374 M
73 31 L
S
GR
GS
[0.75 0 0 0.75 0 0] CT
0.149 GC
2 setlinecap
1 LJ
0.667 LW
N
507 374 M
507 31 L
S
GR
GS
[0.75 0 0 0.75 0 0] CT
0.149 GC
2 setlinecap
1 LJ
0.667 LW
N
73 374 M
77.34 374 L
S
GR
GS
[0.75 0 0 0.75 0 0] CT
0.149 GC
2 setlinecap
1 LJ
0.667 LW
N
73 305.4 M
77.34 305.4 L
S
GR
GS
[0.75 0 0 0.75 0 0] CT
0.149 GC
2 setlinecap
1 LJ
0.667 LW
N
73 236.8 M
77.34 236.8 L
S
GR
GS
[0.75 0 0 0.75 0 0] CT
0.149 GC
2 setlinecap
1 LJ
0.667 LW
N
73 168.2 M
77.34 168.2 L
S
GR
GS
[0.75 0 0 0.75 0 0] CT
0.149 GC
2 setlinecap
1 LJ
0.667 LW
N
73 99.6 M
77.34 99.6 L
S
GR
GS
[0.75 0 0 0.75 0 0] CT
0.149 GC
2 setlinecap
1 LJ
0.667 LW
N
73 31 M
77.34 31 L
S
GR
GS
[0.75 0 0 0.75 0 0] CT
0.149 GC
2 setlinecap
1 LJ
0.667 LW
N
507 374 M
502.66 374 L
S
GR
GS
[0.75 0 0 0.75 0 0] CT
0.149 GC
2 setlinecap
1 LJ
0.667 LW
N
507 305.4 M
502.66 305.4 L
S
GR
GS
[0.75 0 0 0.75 0 0] CT
0.149 GC
2 setlinecap
1 LJ
0.667 LW
N
507 236.8 M
502.66 236.8 L
S
GR
GS
[0.75 0 0 0.75 0 0] CT
0.149 GC
2 setlinecap
1 LJ
0.667 LW
N
507 168.2 M
502.66 168.2 L
S
GR
GS
[0.75 0 0 0.75 0 0] CT
0.149 GC
2 setlinecap
1 LJ
0.667 LW
N
507 99.6 M
502.66 99.6 L
S
GR
GS
[0.75 0 0 0.75 0 0] CT
0.149 GC
2 setlinecap
1 LJ
0.667 LW
N
507 31 M
502.66 31 L
S
GR
GS
[0.75 0 0 0.75 50.75 280.5] CT
0.149 GC
/Helvetica 13.333 F
GS
[1 0 0 1 0 0] CT
-8 5.5 moveto 
1 -1 scale
(0) t 
GR
GR
GS
[0.75 0 0 0.75 50.75 229.05] CT
0.149 GC
/Helvetica 13.333 F
GS
[1 0 0 1 0 0] CT
-19 5.5 moveto 
1 -1 scale
(0.5) t 
GR
GR
GS
[0.75 0 0 0.75 50.75 177.59999] CT
0.149 GC
/Helvetica 13.333 F
GS
[1 0 0 1 0 0] CT
-8 5.5 moveto 
1 -1 scale
(1) t 
GR
GR
GS
[0.75 0 0 0.75 50.75 126.15] CT
0.149 GC
/Helvetica 13.333 F
GS
[1 0 0 1 0 0] CT
-19 5.5 moveto 
1 -1 scale
(1.5) t 
GR
GR
GS
[0.75 0 0 0.75 50.75 74.69999] CT
0.149 GC
/Helvetica 13.333 F
GS
[1 0 0 1 0 0] CT
-8 5.5 moveto 
1 -1 scale
(2) t 
GR
GR
GS
[0.75 0 0 0.75 50.75 23.25001] CT
0.149 GC
/Helvetica 13.333 F
GS
[1 0 0 1 0 0] CT
-19 5.5 moveto 
1 -1 scale
(2.5) t 
GR
GR
GS
[0.75 0 0 0.75 54.75 21] CT
0.149 GC
N
1.906 -0.375 M
1.906 -0.469 1.969 -0.563 QT
4.672 -3.25 L
1.969 -5.953 L
1.906 -6.016 1.906 -6.125 QT
1.906 -6.219 1.984 -6.305 QT
2.063 -6.391 2.172 -6.391 QT
2.266 -6.391 2.375 -6.297 QT
5.063 -3.609 L
7.734 -6.297 L
7.844 -6.391 7.922 -6.391 QT
8.031 -6.391 8.109 -6.313 QT
8.188 -6.234 8.188 -6.125 QT
8.188 -6.016 8.125 -5.953 QT
5.422 -3.25 L
8.125 -0.563 L
8.188 -0.469 8.188 -0.375 QT
8.188 -0.266 8.109 -0.188 QT
8.031 -0.109 7.922 -0.109 QT
7.828 -0.109 7.734 -0.203 QT
5.063 -2.891 L
2.375 -0.203 L
2.266 -0.109 2.172 -0.109 QT
2.063 -0.109 1.984 -0.195 QT
1.906 -0.281 1.906 -0.375 QT
cp
f
GR
GS
[0.75 0 0 0.75 63 21] CT
0.149 GC
/Helvetica 13.333 F
GS
[1 0 0 1 0 0] CT
0 0 moveto 
1 -1 scale
(10) t 
GR
GR
GS
[0.75 0 0 0.75 74.25 16.5] CT
0.149 GC
/Helvetica 10.667 F
GS
[1 0 0 1 0 0] CT
0 0 moveto 
1 -1 scale
(-3) t 
GR
GR
GS
[0.75 0 0 0.75 217.50021 21.18751] CT
/Helvetica-Bold 14.667 F
GS
[1 0 0 1 0 0] CT
-141 -4 moveto 
1 -1 scale
(Tiempo de espera con 1000 repeticiones) t 
GR
GR
GS
[0.75 0 0 0.75 0 0] CT
0 0.447 0.741 RC
1 LJ
0.667 LW
N
73.434 344.005 M
73.868 364.882 L
74.302 356.801 L
74.736 342.607 L
75.17 355.61 L
75.604 363.95 L
76.038 368.457 L
76.472 366.022 L
76.906 369.7 L
77.34 371.565 L
77.774 368.82 L
78.208 364.313 L
78.642 368.923 L
79.076 371.669 L
79.51 365.556 L
79.944 369.079 L
80.378 369.13 L
80.812 369.752 L
81.246 369.13 L
81.68 364.572 L
82.114 364.52 L
82.548 362.189 L
82.982 368.198 L
83.416 371.617 L
83.85 365.141 L
84.284 371.565 L
84.718 368.561 L
85.152 366.281 L
85.586 371.772 L
86.02 365.452 L
86.454 363.846 L
86.888 369.7 L
87.322 369.441 L
87.756 364.779 L
88.19 365.297 L
88.624 369.286 L
89.058 365.297 L
89.492 366.333 L
89.926 369.182 L
90.36 364.779 L
90.794 369.338 L
91.228 366.333 L
91.662 369.856 L
92.096 366.799 L
92.53 369.441 L
92.964 368.664 L
93.398 370.27 L
93.832 369.804 L
94.266 369.804 L
94.7 371.98 L
95.134 363.277 L
95.568 365.245 L
96.002 366.385 L
96.436 369.804 L
96.87 364.934 L
97.304 366.022 L
97.738 366.903 L
98.172 371.876 L
98.606 356.646 L
99.04 368.25 L
99.474 363.743 L
99.908 364.675 L
100.342 371.876 L
100.776 353.071 L
101.21 367.887 L
101.644 363.587 L
102.078 364.727 L
102.512 371.824 L
102.946 363.795 L
103.38 366.281 L
103.814 366.385 L
104.248 369.286 L
104.682 363.846 L
105.116 368.768 L
105.55 369.338 L
105.984 371.462 L
106.418 365.401 L
106.852 365.504 L
107.286 369.234 L
107.72 369.338 L
108.154 369.856 L
108.588 371.41 L
109.022 371.151 L
109.456 370.736 L
109.89 371.41 L
110.324 366.074 L
110.758 360.324 L
111.192 369.804 L
111.626 366.126 L
112.06 359.132 L
112.494 364.831 L
112.928 368.82 L
113.362 350.636 L
113.796 352.967 L
114.23 353.537 L
114.664 364.364 L
115.098 355.765 L
115.532 354.936 L
115.966 354.004 L
116.4 365.919 L
116.834 365.401 L
117.268 366.488 L
117.702 358.252 L
118.136 353.952 L
118.57 354.522 L
119.004 347.528 L
119.438 355.299 L
119.872 362.862 L
120.306 354.988 L
120.74 363.173 L
121.174 363.069 L
121.608 356.024 L
122.042 342.037 L
122.476 350.636 L
122.91 350.326 L
123.344 361.308 L
123.778 359.961 L
124.212 368.509 L
124.646 369.804 L
125.08 364.831 L
125.514 361.412 L
125.948 359.288 L
126.382 363.846 L
126.816 355.35 L
127.25 354.936 L
127.684 348.72 L
128.118 359.391 L
128.552 357.733 L
128.986 319.036 L
129.42 354.729 L
129.854 353.071 L
130.288 364.002 L
130.722 360.376 L
131.156 348.979 L
131.59 343.177 L
132.024 363.173 L
132.458 363.432 L
132.892 355.972 L
133.326 358.77 L
133.76 362.966 L
134.194 365.09 L
134.628 365.97 L
135.062 364.572 L
135.496 364.209 L
135.93 363.846 L
136.364 364.675 L
136.798 356.853 L
137.232 368.509 L
137.666 365.867 L
138.1 350.066 L
138.534 350.636 L
138.968 364.157 L
139.402 363.432 L
139.836 369.856 L
140.27 370.063 L
140.704 370.477 L
141.138 370.581 L
141.572 349.238 L
142.006 368.25 L
142.44 356.335 L
142.874 356.128 L
143.308 358.096 L
143.742 368.094 L
144.176 351.413 L
144.61 356.128 L
145.044 367.265 L
145.478 353.486 L
145.912 364.727 L
146.346 364.468 L
146.78 359.08 L
147.214 369.959 L
147.648 350.999 L
148.082 353.641 L
148.516 368.664 L
148.95 350.066 L
149.384 362.24 L
149.818 365.297 L
150.252 354.366 L
150.686 357.63 L
151.12 357.164 L
151.554 368.094 L
151.988 364.364 L
152.422 354.884 L
152.856 354.263 L
153.29 365.815 L
153.724 370.529 L
154.158 370.218 L
154.592 354.418 L
155.026 362.085 L
155.46 369.752 L
155.894 364.675 L
156.328 355.506 L
156.762 354.884 L
157.196 355.713 L
157.63 354.781 L
158.064 353.641 L
158.498 354.055 L
158.932 359.495 L
159.366 362.344 L
159.8 353.796 L
160.234 349.082 L
160.668 369.13 L
161.102 351.206 L
161.536 366.488 L
161.97 363.795 L
162.404 356.438 L
162.838 365.815 L
163.272 355.765 L
163.706 349.393 L
164.14 369.804 L
164.574 359.391 L
165.008 367.628 L
165.442 367.214 L
165.876 341.622 L
166.31 343.177 L
166.744 346.233 L
167.178 358.148 L
167.612 340.535 L
168.046 346.958 L
168.48 356.49 L
168.914 367.369 L
169.348 371.617 L
169.782 362.448 L
170.216 368.975 L
170.65 365.09 L
171.084 371.824 L
171.518 363.018 L
171.952 366.592 L
172.386 365.141 L
172.82 366.022 L
173.254 364.572 L
173.688 364.986 L
174.122 370.218 L
174.556 360.22 L
174.99 369.7 L
175.424 358.096 L
175.858 364.364 L
176.292 364.779 L
176.726 365.97 L
177.16 360.324 L
177.594 358.459 L
178.028 365.556 L
178.462 358.044 L
178.896 355.402 L
179.33 365.556 L
179.764 356.335 L
180.198 370.426 L
180.632 365.608 L
181.066 359.961 L
181.5 370.477 L
181.934 356.697 L
182.368 364.623 L
182.802 356.076 L
183.236 359.65 L
183.67 358.303 L
184.104 365.504 L
184.538 367.628 L
184.972 364.934 L
185.406 365.038 L
185.84 359.495 L
186.274 370.27 L
186.708 360.79 L
187.142 359.65 L
187.576 358.77 L
188.01 360.686 L
188.444 365.297 L
188.878 358.148 L
189.312 370.426 L
189.746 365.867 L
190.18 367.11 L
190.614 366.333 L
191.048 360.427 L
191.482 370.426 L
191.916 358.873 L
192.35 359.754 L
192.784 365.97 L
193.218 360.686 L
193.652 356.542 L
194.086 356.697 L
194.52 358.562 L
194.954 367.214 L
195.388 347.114 L
195.822 367.369 L
196.256 368.302 L
196.69 361.93 L
197.124 353.175 L
197.558 351.31 L
197.992 80.374 L
198.426 334.888 L
198.86 348.202 L
199.294 362.448 L
199.728 346.181 L
200.162 352.035 L
200.596 348.616 L
201.03 361.049 L
201.464 362.81 L
201.898 369.027 L
202.332 362.758 L
202.766 355.869 L
203.2 362.189 L
203.634 369.13 L
204.068 352.708 L
204.502 363.277 L
204.936 364.261 L
205.37 353.486 L
205.804 355.091 L
206.238 351.724 L
206.672 364.002 L
207.106 356.335 L
207.54 354.47 L
207.974 357.215 L
208.408 365.245 L
208.842 364.934 L
209.276 360.168 L
209.71 337.012 L
210.144 365.038 L
210.578 350.533 L
211.012 338.307 L
211.446 362.81 L
211.88 352.605 L
212.314 341.778 L
212.748 362.085 L
213.182 369.441 L
213.616 353.071 L
214.05 361.567 L
214.484 345.663 L
214.918 360.738 L
215.352 351.828 L
215.786 356.956 L
216.22 364.105 L
216.654 371.617 L
217.088 366.333 L
217.522 369.079 L
217.956 368.768 L
218.39 362.914 L
218.824 365.09 L
219.258 371.669 L
219.692 370.477 L
220.126 369.389 L
220.56 369.7 L
220.994 364.468 L
221.428 363.743 L
221.862 369.13 L
222.296 366.747 L
222.73 363.846 L
223.164 371.669 L
223.598 369.286 L
224.032 363.846 L
224.466 371.928 L
224.9 370.426 L
225.334 369.804 L
225.768 364.002 L
226.202 365.452 L
226.636 363.846 L
227.07 364.831 L
227.504 371.98 L
227.938 369.804 L
228.372 369.234 L
228.806 365.504 L
229.24 365.349 L
229.674 365.815 L
230.108 369.338 L
230.542 369.389 L
230.976 371.98 L
231.41 369.338 L
231.844 371.98 L
232.278 371.98 L
232.712 364.986 L
233.146 363.95 L
233.58 363.38 L
234.014 369.338 L
234.448 371.98 L
234.882 365.349 L
235.316 366.229 L
235.75 365.245 L
236.184 369.338 L
236.618 363.743 L
237.052 365.452 L
237.486 371.876 L
237.92 362.396 L
238.354 371.772 L
238.788 365.815 L
239.222 363.95 L
239.656 365.193 L
240.09 365.401 L
240.524 365.452 L
240.958 371.876 L
241.392 365.452 L
241.826 371.928 L
242.26 372.031 L
242.694 369.441 L
243.128 369.234 L
243.562 371.98 L
243.996 340.586 L
244.43 358.977 L
244.864 353.589 L
245.298 362.137 L
245.732 368.353 L
246.166 361.826 L
246.6 361.93 L
247.034 363.173 L
247.468 369.027 L
247.902 369.027 L
248.336 354.107 L
248.77 355.713 L
249.204 356.387 L
249.638 347.476 L
250.072 368.975 L
250.506 369.027 L
250.94 351.828 L
251.374 362.862 L
251.808 369.079 L
252.242 353.848 L
252.676 354.055 L
253.11 355.972 L
253.544 366.437 L
253.978 364.364 L
254.412 370.167 L
254.846 359.754 L
255.28 369.959 L
255.714 365.245 L
256.148 370.063 L
256.582 365.297 L
257.016 356.697 L
257.45 357.215 L
257.884 358.096 L
258.318 365.711 L
258.752 367.939 L
259.186 365.815 L
259.62 355.143 L
260.054 351.569 L
260.488 365.556 L
260.922 365.711 L
261.356 365.556 L
261.79 365.141 L
262.224 370.685 L
262.658 367.317 L
263.092 364.054 L
263.526 366.126 L
263.96 364.934 L
264.394 369.597 L
264.828 366.333 L
265.262 369.907 L
265.696 371.98 L
266.13 364.572 L
266.564 371.772 L
266.998 368.768 L
267.432 371.876 L
267.866 369.389 L
268.3 366.437 L
268.734 369.856 L
269.168 369.389 L
269.602 364.831 L
270.036 364.934 L
270.47 365.711 L
270.904 290.388 L
271.338 350.481 L
271.772 357.008 L
272.206 335.458 L
272.64 330.122 L
273.074 348.253 L
273.508 369.079 L
273.942 371.358 L
274.376 368.043 L
274.81 364.52 L
275.244 371.669 L
275.678 368.664 L
276.112 369.234 L
276.546 371.876 L
276.98 363.639 L
277.414 364.52 L
277.848 371.824 L
278.282 369.648 L
278.716 369.234 L
279.15 363.536 L
279.584 365.711 L
280.018 366.178 L
280.452 368.561 L
280.886 371.876 L
281.32 360.531 L
281.754 351.828 L
282.188 356.749 L
282.622 365.141 L
283.056 351.621 L
283.49 363.639 L
283.924 362.758 L
284.358 363.277 L
284.792 352.139 L
285.226 354.47 L
285.66 353.071 L
286.094 353.537 L
286.528 344.627 L
286.962 358.303 L
287.396 356.438 L
287.83 358.252 L
288.264 369.234 L
288.698 369.856 L
289.132 366.022 L
289.566 364.313 L
290 369.182 L
290.434 369.13 L
290.868 365.66 L
291.302 364.675 L
291.736 369.752 L
292.17 371.876 L
292.604 365.297 L
293.038 371.876 L
293.472 371.928 L
293.906 366.281 L
294.34 365.297 L
294.774 368.82 L
295.208 370.374 L
295.642 365.349 L
296.076 362.448 L
296.51 366.178 L
296.944 360.22 L
297.378 370.944 L
297.812 369.079 L
298.246 371.876 L
298.68 369.856 L
299.114 368.871 L
299.548 369.286 L
299.982 365.97 L
300.416 363.795 L
300.85 371.928 L
301.284 369.338 L
301.718 371.772 L
302.152 364.934 L
302.586 366.281 L
303.02 363.846 L
303.454 371.928 L
303.888 371.98 L
304.322 369.234 L
304.756 369.286 L
305.19 366.385 L
305.624 365.504 L
306.058 371.928 L
306.492 364.364 L
306.926 369.13 L
307.36 371.928 L
307.794 366.437 L
308.228 369.286 L
308.662 366.385 L
309.096 366.126 L
309.53 363.432 L
309.964 366.385 L
310.398 368.871 L
310.832 371.98 L
311.266 366.437 L
311.7 365.401 L
312.134 364.779 L
312.568 369.286 L
313.002 365.401 L
313.436 364.831 L
313.87 371.98 L
314.304 366.54 L
314.738 365.141 L
315.172 365.452 L
315.606 369.338 L
316.04 369.389 L
316.474 363.225 L
316.908 371.824 L
317.342 366.437 L
317.776 369.441 L
318.21 365.919 L
318.644 364.882 L
319.078 369.338 L
319.512 365.297 L
319.946 370.322 L
320.38 372.031 L
320.814 364.934 L
321.248 369.286 L
321.682 364.831 L
322.116 366.437 L
322.55 371.98 L
322.984 366.385 L
323.418 369.234 L
323.852 369.286 L
324.286 371.98 L
324.72 369.441 L
325.154 365.556 L
325.588 369.338 L
326.022 366.437 L
326.456 371.928 L
326.89 372.031 L
327.324 365.452 L
327.758 370.374 L
328.192 368.975 L
328.626 369.441 L
329.06 364.105 L
329.494 366.851 L
329.928 365.297 L
330.362 369.389 L
330.796 369.441 L
331.23 369.389 L
331.664 365.141 L
332.098 369.286 L
332.532 365.504 L
332.966 371.928 L
333.4 366.333 L
333.834 369.648 L
334.268 371.98 L
334.702 365.608 L
335.136 368.923 L
335.57 365.193 L
336.004 366.126 L
336.438 369.493 L
336.872 365.245 L
337.306 369.286 L
337.74 370.374 L
338.174 365.711 L
338.608 363.691 L
339.042 371.876 L
339.476 364.986 L
339.91 371.98 L
340.344 369.907 L
340.778 371.98 L
341.212 366.385 L
341.646 369.234 L
342.08 365.97 L
342.514 369.182 L
342.948 369.338 L
343.382 366.385 L
343.816 369.804 L
344.25 370.374 L
344.684 369.286 L
345.118 372.031 L
345.552 363.691 L
345.986 369.286 L
346.42 371.98 L
346.854 370.374 L
347.288 363.484 L
347.722 363.898 L
348.156 371.928 L
348.59 369.338 L
349.024 371.928 L
349.458 369.856 L
349.892 364.934 L
350.326 369.752 L
350.76 369.804 L
351.194 371.98 L
351.628 369.441 L
352.062 363.95 L
352.496 364.934 L
352.93 366.437 L
353.364 371.98 L
353.798 372.083 L
354.232 366.437 L
354.666 366.385 L
355.1 364.002 L
355.534 369.804 L
355.968 369.13 L
356.402 363.536 L
356.836 365.193 L
357.27 368.871 L
357.704 369.286 L
358.138 366.437 L
358.572 369.907 L
359.006 369.389 L
359.44 364.934 L
359.874 368.923 L
360.308 366.333 L
360.742 371.928 L
361.176 372.031 L
361.61 369.856 L
362.044 369.389 L
362.478 371.98 L
362.912 372.031 L
363.346 370.011 L
363.78 366.385 L
364.214 365.401 L
364.648 366.333 L
365.082 371.98 L
365.516 372.031 L
365.95 369.441 L
366.384 366.385 L
366.818 368.612 L
367.252 369.493 L
367.686 366.488 L
368.12 366.178 L
368.554 365.97 L
368.988 363.95 L
369.422 364.882 L
369.856 369.389 L
370.29 365.349 L
370.724 368.82 L
371.158 369.389 L
371.592 367.006 L
372.026 369.286 L
372.46 369.286 L
372.894 364.986 L
373.328 369.441 L
373.762 369.441 L
374.196 366.437 L
374.63 363.795 L
375.064 369.389 L
375.498 369.286 L
375.932 370.84 L
376.366 369.856 L
376.8 366.903 L
377.234 364.416 L
377.668 369.13 L
378.102 366.281 L
378.536 363.898 L
378.97 364.002 L
379.404 369.389 L
379.838 369.338 L
380.272 372.031 L
380.706 365.401 L
381.14 365.97 L
381.574 371.98 L
382.008 366.333 L
382.442 364.934 L
382.876 369.804 L
383.31 370.322 L
383.744 369.027 L
384.178 364.054 L
384.612 369.441 L
385.046 371.617 L
385.48 359.598 L
385.914 368.25 L
386.348 369.7 L
386.782 366.385 L
387.216 369.338 L
387.65 369.389 L
388.084 368.82 L
388.518 365.401 L
388.952 369.389 L
389.386 371.876 L
389.82 369.804 L
390.254 369.338 L
390.688 369.389 L
391.122 366.488 L
391.556 369.338 L
391.99 371.98 L
392.424 366.437 L
392.858 369.338 L
393.292 365.038 L
393.726 368.716 L
394.16 369.389 L
394.594 366.437 L
395.028 372.031 L
395.462 364.416 L
395.896 363.484 L
396.33 363.95 L
396.764 369.286 L
397.198 365.193 L
397.632 369.648 L
398.066 371.876 L
398.5 371.98 L
398.934 371.98 L
399.368 369.389 L
399.802 369.441 L
400.236 365.452 L
400.67 364.831 L
401.104 368.923 L
401.538 369.907 L
401.972 364.986 L
402.406 364.831 L
402.84 371.98 L
403.274 364.002 L
403.708 369.286 L
404.142 369.389 L
404.576 369.389 L
405.01 361.981 L
405.444 349.082 L
405.878 365.504 L
406.312 353.382 L
406.746 360.065 L
407.18 364.054 L
407.614 366.903 L
408.048 361.515 L
408.482 351.362 L
408.916 361.878 L
409.35 358.407 L
409.784 359.806 L
410.218 364.779 L
410.652 355.454 L
411.086 365.193 L
411.52 366.696 L
411.954 357.837 L
412.388 365.141 L
412.822 364.468 L
413.256 365.141 L
413.69 370.218 L
414.124 358.2 L
414.558 360.116 L
414.992 329.397 L
415.426 335.406 L
415.86 346.233 L
416.294 341.467 L
416.728 335.561 L
417.162 343.384 L
417.596 354.729 L
418.03 362.914 L
418.464 366.437 L
418.898 364.831 L
419.332 369.804 L
419.766 370.115 L
420.2 370.426 L
420.634 356.905 L
421.068 369.907 L
421.502 370.581 L
421.936 365.141 L
422.37 355.299 L
422.804 363.587 L
423.238 359.598 L
423.672 359.288 L
424.106 369.13 L
424.54 370.011 L
424.974 360.686 L
425.408 369.545 L
425.842 367.265 L
426.276 364.727 L
426.71 365.919 L
427.144 354.729 L
427.578 364.986 L
428.012 355.143 L
428.446 369.389 L
428.88 366.281 L
429.314 369.959 L
429.748 365.09 L
430.182 354.159 L
430.616 356.853 L
431.05 355.454 L
431.484 363.743 L
431.918 356.335 L
432.352 359.288 L
432.786 366.022 L
433.22 364.727 L
433.654 364.934 L
434.088 356.905 L
434.522 368.975 L
434.956 370.218 L
435.39 355.506 L
435.824 369.7 L
436.258 370.27 L
436.692 365.297 L
437.126 357.785 L
437.56 361.101 L
437.994 365.349 L
438.428 370.322 L
438.862 370.529 L
439.296 358.977 L
439.73 357.474 L
440.164 357.578 L
440.598 355.817 L
441.032 364.623 L
441.466 358.044 L
441.9 370.011 L
442.334 370.529 L
442.768 365.867 L
443.202 360.738 L
443.636 365.401 L
444.07 365.556 L
444.504 357.993 L
444.938 360.324 L
445.372 357.06 L
445.806 369.907 L
446.24 361.049 L
446.674 358.666 L
447.108 365.66 L
447.542 364.882 L
447.976 360.79 L
448.41 360.376 L
448.844 365.608 L
449.278 366.54 L
449.712 367.628 L
450.146 370.581 L
450.58 365.815 L
451.014 358.614 L
451.448 357.993 L
451.882 365.711 L
452.316 360.79 L
452.75 370.115 L
453.184 358.355 L
453.618 358.77 L
454.052 370.063 L
454.486 359.288 L
454.92 357.993 L
455.354 357.993 L
455.788 365.452 L
456.222 369.804 L
456.656 370.581 L
457.09 361.826 L
457.524 366.437 L
457.958 360.427 L
458.392 358.718 L
458.826 356.387 L
459.26 366.281 L
459.694 365.97 L
460.128 370.27 L
460.562 366.54 L
460.996 367.68 L
461.43 358.148 L
461.864 365.815 L
462.298 358.666 L
462.732 355.661 L
463.166 370.27 L
463.6 362.033 L
464.034 370.167 L
464.468 366.333 L
464.902 366.074 L
465.336 367.68 L
465.77 367.835 L
466.204 367.006 L
466.638 366.022 L
467.072 370.685 L
467.506 366.437 L
467.94 362.396 L
468.374 360.738 L
468.808 365.608 L
469.242 361.463 L
469.676 358.821 L
470.11 366.437 L
470.544 366.385 L
470.978 356.335 L
471.412 370.633 L
471.846 366.488 L
472.28 359.184 L
472.714 364.934 L
473.148 370.529 L
473.582 370.477 L
474.016 366.799 L
474.45 360.686 L
474.884 364.623 L
475.318 368.25 L
475.752 364.675 L
476.186 366.281 L
476.62 371.928 L
477.054 365.349 L
477.488 365.815 L
477.922 369.286 L
478.356 366.437 L
478.79 366.437 L
479.224 365.349 L
479.658 371.876 L
480.092 369.856 L
480.526 369.286 L
480.96 366.488 L
481.394 369.907 L
481.828 365.349 L
482.262 364.831 L
482.696 366.385 L
483.13 369.389 L
483.564 369.856 L
483.998 364.986 L
484.432 368.871 L
484.866 371.928 L
485.3 369.441 L
485.734 363.225 L
486.168 366.437 L
486.602 369.286 L
487.036 366.437 L
487.47 371.928 L
487.904 366.592 L
488.338 369.182 L
488.772 371.98 L
489.206 372.031 L
489.64 369.441 L
490.074 369.856 L
490.508 369.389 L
490.942 369.441 L
491.376 369.441 L
491.81 366.229 L
492.244 365.401 L
492.678 369.389 L
493.112 371.98 L
493.546 363.95 L
493.98 364.002 L
494.414 369.13 L
494.848 371.928 L
495.282 369.338 L
495.716 371.928 L
496.15 369.338 L
496.584 369.804 L
497.018 365.401 L
497.452 369.338 L
497.886 365.349 L
498.32 364.882 L
498.754 366.437 L
499.188 366.385 L
499.622 364.831 L
500.056 369.338 L
500.49 366.281 L
500.924 369.907 L
501.358 369.441 L
501.792 365.452 L
502.226 351.517 L
502.66 363.277 L
503.094 355.454 L
503.528 357.267 L
503.962 347.735 L
504.396 347.217 L
504.83 347.01 L
505.264 355.869 L
505.698 360.479 L
506.132 363.743 L
506.566 360.427 L
507 368.82 L
S
GR
%%Trailer
%%Pages: 1
%%EOF
